# BEGIN PLOT
LegendOnly=//Users/Nappo/work/hep/code/trunk/Examples/Z-benchmarks/inclusive-results/MEPSatNLO-CSS_evol_scheme-0.yoda/MC_VH2BB/jet_bb_Delta_pT //Users/Nappo/work/hep/code/trunk/Examples/Z-benchmarks/inclusive-results/MEPSatNLO-CSS_evol_scheme-1.yoda/MC_VH2BB/jet_bb_Delta_pT //Users/Nappo/work/hep/code/trunk/Examples/Z-benchmarks/inclusive-results/MEPSatNLO-CSS_evol_scheme-2.yoda/MC_VH2BB/jet_bb_Delta_pT //Users/Nappo/work/hep/code/trunk/Examples/Z-benchmarks/inclusive-results/MEPSatNLO-CSS_evol_scheme-3.yoda/MC_VH2BB/jet_bb_Delta_pT //Users/Nappo/work/hep/code/trunk/Examples/Z-benchmarks/inclusive-results/MEPSatNLO-Dire.yoda/MC_VH2BB/jet_bb_Delta_pT
DrawOnly=//Users/Nappo/work/hep/code/trunk/Examples/Z-benchmarks/inclusive-results/MEPSatNLO-CSS_evol_scheme-0.yoda/MC_VH2BB/jet_bb_Delta_pT //Users/Nappo/work/hep/code/trunk/Examples/Z-benchmarks/inclusive-results/MEPSatNLO-CSS_evol_scheme-1.yoda/MC_VH2BB/jet_bb_Delta_pT //Users/Nappo/work/hep/code/trunk/Examples/Z-benchmarks/inclusive-results/MEPSatNLO-CSS_evol_scheme-2.yoda/MC_VH2BB/jet_bb_Delta_pT //Users/Nappo/work/hep/code/trunk/Examples/Z-benchmarks/inclusive-results/MEPSatNLO-CSS_evol_scheme-3.yoda/MC_VH2BB/jet_bb_Delta_pT //Users/Nappo/work/hep/code/trunk/Examples/Z-benchmarks/inclusive-results/MEPSatNLO-Dire.yoda/MC_VH2BB/jet_bb_Delta_pT
RatioPlotReference=//Users/Nappo/work/hep/code/trunk/Examples/Z-benchmarks/inclusive-results/MEPSatNLO-CSS_evol_scheme-0.yoda/MC_VH2BB/jet_bb_Delta_pT
RatioPlot=1
LogY=1
RatioPlotYLabel=Ratio
Legend=1
# END PLOT

# BEGIN HISTO1D //Users/Nappo/work/hep/code/trunk/Examples/Z-benchmarks/inclusive-results/MEPSatNLO-CSS_evol_scheme-0.yoda/MC_VH2BB/jet_bb_Delta_pT
Color=red
ErrorBars=1
LineColor=red
LineStyle=solid
Path=//Users/Nappo/work/hep/code/trunk/Examples/Z-benchmarks/inclusive-results/MEPSatNLO-CSS_evol_scheme-0.yoda/MC_VH2BB/jet_bb_Delta_pT
ScaledBy=1.63943359798819209e-08
Title= 0
XLabel=~
YLabel=~
# xlow	 xhigh	 val	 errminus	 errplus
0.000000e+00	1.000000e+01	3.345536e-02	3.807738e-03	3.807738e-03
1.000000e+01	2.000000e+01	2.230843e-02	1.406220e-03	1.406220e-03
2.000000e+01	3.000000e+01	1.355101e-02	1.268900e-03	1.268900e-03
3.000000e+01	4.000000e+01	1.122694e-02	3.035918e-03	3.035918e-03
4.000000e+01	5.000000e+01	5.440422e-03	4.253725e-04	4.253725e-04
5.000000e+01	6.000000e+01	3.975098e-03	5.438632e-04	5.438632e-04
6.000000e+01	7.000000e+01	2.397362e-03	1.358915e-04	1.358915e-04
7.000000e+01	8.000000e+01	1.751355e-03	1.413711e-04	1.413711e-04
8.000000e+01	9.000000e+01	1.266389e-03	1.556274e-04	1.556274e-04
9.000000e+01	1.000000e+02	1.088969e-03	1.358078e-04	1.358078e-04
1.000000e+02	1.100000e+02	6.809671e-04	8.491155e-05	8.491155e-05
1.100000e+02	1.200000e+02	4.522260e-04	4.585452e-05	4.585452e-05
1.200000e+02	1.300000e+02	3.224623e-04	2.814622e-05	2.814622e-05
1.300000e+02	1.400000e+02	3.293128e-04	3.896484e-05	3.896484e-05
1.400000e+02	1.500000e+02	2.162815e-04	3.534626e-05	3.534626e-05
1.500000e+02	1.600000e+02	1.815136e-04	3.099702e-05	3.099702e-05
1.600000e+02	1.700000e+02	1.324223e-04	1.560868e-05	1.560868e-05
1.700000e+02	1.800000e+02	1.063188e-04	2.389530e-05	2.389530e-05
1.800000e+02	1.900000e+02	9.379980e-05	1.530162e-05	1.530162e-05
1.900000e+02	2.000000e+02	4.598680e-05	5.931126e-06	5.931126e-06
2.000000e+02	2.100000e+02	7.727718e-05	2.318024e-05	2.318024e-05
2.100000e+02	2.200000e+02	5.509468e-05	1.273659e-05	1.273659e-05
2.200000e+02	2.300000e+02	5.918799e-05	2.463210e-05	2.463210e-05
2.300000e+02	2.400000e+02	4.512068e-05	9.331928e-06	9.331928e-06
2.400000e+02	2.500000e+02	3.926784e-05	1.341641e-05	1.341641e-05
2.500000e+02	2.600000e+02	3.423560e-05	1.508702e-05	1.508702e-05
2.600000e+02	2.700000e+02	1.757266e-05	3.644740e-06	3.644740e-06
2.700000e+02	2.800000e+02	1.599982e-05	3.192082e-06	3.192082e-06
2.800000e+02	2.900000e+02	9.053415e-06	2.416328e-06	2.416328e-06
2.900000e+02	3.000000e+02	1.189399e-05	2.340749e-06	2.340749e-06
3.000000e+02	3.100000e+02	1.291925e-05	3.602348e-06	3.602348e-06
3.100000e+02	3.200000e+02	1.032541e-05	3.047445e-06	3.047445e-06
3.200000e+02	3.300000e+02	7.019301e-06	1.745541e-06	1.745541e-06
3.300000e+02	3.400000e+02	2.429848e-05	1.950491e-05	1.950491e-05
3.400000e+02	3.500000e+02	2.937877e-06	6.624812e-07	6.624812e-07
3.500000e+02	3.600000e+02	3.624053e-06	1.029446e-06	1.029446e-06
3.600000e+02	3.700000e+02	2.138023e-06	4.196808e-07	4.196808e-07
3.700000e+02	3.800000e+02	2.309782e-06	7.849107e-07	7.849107e-07
3.800000e+02	3.900000e+02	2.685727e-06	1.262184e-06	1.262184e-06
3.900000e+02	4.000000e+02	5.037618e-06	2.028063e-06	2.028063e-06
4.000000e+02	4.100000e+02	8.913616e-07	2.828207e-07	2.828207e-07
4.100000e+02	4.200000e+02	1.720571e-06	9.389329e-07	9.389329e-07
4.200000e+02	4.300000e+02	1.994846e-06	8.447317e-07	8.447317e-07
4.300000e+02	4.400000e+02	1.627174e-06	1.131640e-06	1.131640e-06
4.400000e+02	4.500000e+02	1.352199e-06	5.275583e-07	5.275583e-07
4.500000e+02	4.600000e+02	2.276506e-07	7.468214e-08	7.468214e-08
4.600000e+02	4.700000e+02	1.592528e-06	9.898603e-07	9.898603e-07
4.700000e+02	4.800000e+02	2.456570e-06	1.511243e-06	1.511243e-06
4.800000e+02	4.900000e+02	2.349198e-07	8.304103e-08	8.304103e-08
4.900000e+02	5.000000e+02	7.647644e-07	6.268819e-07	6.268819e-07
# END HISTO1D


# BEGIN HISTO1D //Users/Nappo/work/hep/code/trunk/Examples/Z-benchmarks/inclusive-results/MEPSatNLO-CSS_evol_scheme-1.yoda/MC_VH2BB/jet_bb_Delta_pT
Color=blue
ErrorBars=1
LineColor=blue
LineStyle=solid
Path=//Users/Nappo/work/hep/code/trunk/Examples/Z-benchmarks/inclusive-results/MEPSatNLO-CSS_evol_scheme-1.yoda/MC_VH2BB/jet_bb_Delta_pT
ScaledBy=1.80179284153469796e-08
Title=Scheme-1
XLabel=~
YLabel=~
# xlow	 xhigh	 val	 errminus	 errplus
0.000000e+00	1.000000e+01	2.582347e-02	2.068629e-03	2.068629e-03
1.000000e+01	2.000000e+01	1.398441e-02	1.799440e-03	1.799440e-03
2.000000e+01	3.000000e+01	1.093049e-02	1.705053e-03	1.705053e-03
3.000000e+01	4.000000e+01	6.209596e-03	3.107094e-04	3.107094e-04
4.000000e+01	5.000000e+01	4.006978e-03	3.469130e-04	3.469130e-04
5.000000e+01	6.000000e+01	2.831849e-03	1.893423e-04	1.893423e-04
6.000000e+01	7.000000e+01	1.998126e-03	1.847066e-04	1.847066e-04
7.000000e+01	8.000000e+01	1.262409e-03	8.716271e-05	8.716271e-05
8.000000e+01	9.000000e+01	8.706286e-04	5.660667e-05	5.660667e-05
9.000000e+01	1.000000e+02	6.591012e-04	6.227064e-05	6.227064e-05
1.000000e+02	1.100000e+02	6.487861e-04	1.518450e-04	1.518450e-04
1.100000e+02	1.200000e+02	3.460043e-04	3.549537e-05	3.549537e-05
1.200000e+02	1.300000e+02	2.930427e-04	3.430238e-05	3.430238e-05
1.300000e+02	1.400000e+02	1.893882e-04	1.837617e-05	1.837617e-05
1.400000e+02	1.500000e+02	2.609801e-04	7.752194e-05	7.752194e-05
1.500000e+02	1.600000e+02	1.280396e-04	1.606838e-05	1.606838e-05
1.600000e+02	1.700000e+02	1.147192e-04	1.681581e-05	1.681581e-05
1.700000e+02	1.800000e+02	7.923228e-05	1.440139e-05	1.440139e-05
1.800000e+02	1.900000e+02	5.096473e-05	7.656852e-06	7.656852e-06
1.900000e+02	2.000000e+02	5.942123e-05	1.547084e-05	1.547084e-05
2.000000e+02	2.100000e+02	4.358719e-05	7.811243e-06	7.811243e-06
2.100000e+02	2.200000e+02	3.730178e-05	9.199019e-06	9.199019e-06
2.200000e+02	2.300000e+02	2.769643e-05	7.155013e-06	7.155013e-06
2.300000e+02	2.400000e+02	1.674326e-05	2.867479e-06	2.867479e-06
2.400000e+02	2.500000e+02	3.419125e-05	1.807027e-05	1.807027e-05
2.500000e+02	2.600000e+02	1.842653e-05	4.164209e-06	4.164209e-06
2.600000e+02	2.700000e+02	3.029686e-05	1.442068e-05	1.442068e-05
2.700000e+02	2.800000e+02	1.281507e-05	5.421167e-06	5.421167e-06
2.800000e+02	2.900000e+02	7.545083e-06	2.763583e-06	2.763583e-06
2.900000e+02	3.000000e+02	6.798651e-06	1.410612e-06	1.410612e-06
3.000000e+02	3.100000e+02	3.747799e-06	8.446151e-07	8.446151e-07
3.100000e+02	3.200000e+02	2.765160e-06	6.182302e-07	6.182302e-07
3.200000e+02	3.300000e+02	5.917130e-06	1.994918e-06	1.994918e-06
3.300000e+02	3.400000e+02	2.412529e-06	5.789044e-07	5.789044e-07
3.400000e+02	3.500000e+02	1.764758e-06	4.040385e-07	4.040385e-07
3.500000e+02	3.600000e+02	8.843380e-07	6.483442e-07	6.483442e-07
3.600000e+02	3.700000e+02	2.082364e-06	5.663829e-07	5.663829e-07
3.700000e+02	3.800000e+02	8.347827e-06	4.683326e-06	4.683326e-06
3.800000e+02	3.900000e+02	1.473883e-06	4.212054e-07	4.212054e-07
3.900000e+02	4.000000e+02	6.981369e-07	1.814432e-07	1.814432e-07
4.000000e+02	4.100000e+02	2.723175e-06	1.042060e-06	1.042060e-06
4.100000e+02	4.200000e+02	2.067785e-06	1.291166e-06	1.291166e-06
4.200000e+02	4.300000e+02	1.000764e-06	3.490881e-07	3.490881e-07
4.300000e+02	4.400000e+02	4.145298e-07	1.136161e-07	1.136161e-07
4.400000e+02	4.500000e+02	4.407976e-07	1.558855e-07	1.558855e-07
4.500000e+02	4.600000e+02	7.881778e-07	3.881354e-07	3.881354e-07
4.600000e+02	4.700000e+02	4.779560e-07	1.592288e-07	1.592288e-07
4.700000e+02	4.800000e+02	1.878380e-07	6.602493e-08	6.602493e-08
4.800000e+02	4.900000e+02	5.438943e-07	2.875600e-07	2.875600e-07
4.900000e+02	5.000000e+02	8.785481e-07	7.174034e-07	7.174034e-07
# END HISTO1D


# BEGIN HISTO1D //Users/Nappo/work/hep/code/trunk/Examples/Z-benchmarks/inclusive-results/MEPSatNLO-CSS_evol_scheme-2.yoda/MC_VH2BB/jet_bb_Delta_pT
Color=red
ErrorBars=1
LineColor=green
LineStyle=dashed
Path=//Users/Nappo/work/hep/code/trunk/Examples/Z-benchmarks/inclusive-results/MEPSatNLO-CSS_evol_scheme-2.yoda/MC_VH2BB/jet_bb_Delta_pT
ScaledBy=1.69661414011498041e-08
Title=Scheme-2
XLabel=~
YLabel=~
# xlow	 xhigh	 val	 errminus	 errplus
0.000000e+00	1.000000e+01	2.558575e-02	3.307502e-03	3.307502e-03
1.000000e+01	2.000000e+01	1.914571e-02	9.448818e-04	9.448818e-04
2.000000e+01	3.000000e+01	1.282818e-02	8.479293e-04	8.479293e-04
3.000000e+01	4.000000e+01	8.807381e-03	7.373038e-04	7.373038e-04
4.000000e+01	5.000000e+01	5.131108e-03	2.820149e-04	2.820149e-04
5.000000e+01	6.000000e+01	3.278067e-03	1.884079e-04	1.884079e-04
6.000000e+01	7.000000e+01	2.287932e-03	1.349459e-04	1.349459e-04
7.000000e+01	8.000000e+01	1.589609e-03	1.022292e-04	1.022292e-04
8.000000e+01	9.000000e+01	1.137762e-03	8.700806e-05	8.700806e-05
9.000000e+01	1.000000e+02	7.293949e-04	6.280838e-05	6.280838e-05
1.000000e+02	1.100000e+02	5.365400e-04	3.936534e-05	3.936534e-05
1.100000e+02	1.200000e+02	3.974334e-04	3.330389e-05	3.330389e-05
1.200000e+02	1.300000e+02	3.727792e-04	3.453833e-05	3.453833e-05
1.300000e+02	1.400000e+02	2.482244e-04	2.674952e-05	2.674952e-05
1.400000e+02	1.500000e+02	2.157238e-04	3.806422e-05	3.806422e-05
1.500000e+02	1.600000e+02	1.332579e-04	1.773259e-05	1.773259e-05
1.600000e+02	1.700000e+02	1.261775e-04	2.463438e-05	2.463438e-05
1.700000e+02	1.800000e+02	1.193940e-04	2.821267e-05	2.821267e-05
1.800000e+02	1.900000e+02	6.928703e-05	1.379057e-05	1.379057e-05
1.900000e+02	2.000000e+02	8.475346e-05	2.611613e-05	2.611613e-05
2.000000e+02	2.100000e+02	4.084115e-05	6.799051e-06	6.799051e-06
2.100000e+02	2.200000e+02	2.676332e-05	4.430033e-06	4.430033e-06
2.200000e+02	2.300000e+02	2.611075e-05	4.770903e-06	4.770903e-06
2.300000e+02	2.400000e+02	1.586701e-05	2.922583e-06	2.922583e-06
2.400000e+02	2.500000e+02	1.560311e-05	2.144704e-06	2.144704e-06
2.500000e+02	2.600000e+02	1.385230e-05	2.627659e-06	2.627659e-06
2.600000e+02	2.700000e+02	1.196522e-05	2.417352e-06	2.417352e-06
2.700000e+02	2.800000e+02	8.411426e-06	2.127556e-06	2.127556e-06
2.800000e+02	2.900000e+02	8.350262e-06	2.360871e-06	2.360871e-06
2.900000e+02	3.000000e+02	6.270800e-06	1.495912e-06	1.495912e-06
3.000000e+02	3.100000e+02	6.872310e-06	2.275463e-06	2.275463e-06
3.100000e+02	3.200000e+02	7.536064e-06	2.536939e-06	2.536939e-06
3.200000e+02	3.300000e+02	4.707365e-06	1.392340e-06	1.392340e-06
3.300000e+02	3.400000e+02	5.850671e-06	1.768672e-06	1.768672e-06
3.400000e+02	3.500000e+02	6.675391e-06	2.715234e-06	2.715234e-06
3.500000e+02	3.600000e+02	3.880957e-06	1.540616e-06	1.540616e-06
3.600000e+02	3.700000e+02	2.516030e-06	6.930926e-07	6.930926e-07
3.700000e+02	3.800000e+02	2.927201e-06	1.752124e-06	1.752124e-06
3.800000e+02	3.900000e+02	1.177440e-06	5.188587e-07	5.188587e-07
3.900000e+02	4.000000e+02	9.181771e-07	2.414562e-07	2.414562e-07
4.000000e+02	4.100000e+02	3.655091e-06	2.192939e-06	2.192939e-06
4.100000e+02	4.200000e+02	3.278244e-07	1.979260e-07	1.979260e-07
4.200000e+02	4.300000e+02	5.183929e-06	3.630562e-06	3.630562e-06
4.300000e+02	4.400000e+02	2.198257e-07	9.223729e-08	9.223729e-08
4.400000e+02	4.500000e+02	4.057297e-07	1.849019e-07	1.849019e-07
4.500000e+02	4.600000e+02	3.133719e-07	1.369465e-07	1.369465e-07
4.600000e+02	4.700000e+02	3.122527e-07	1.734802e-07	1.734802e-07
4.700000e+02	4.800000e+02	6.340033e-07	2.989662e-07	2.989662e-07
4.800000e+02	4.900000e+02	3.501433e-07	2.517287e-07	2.517287e-07
4.900000e+02	5.000000e+02	2.586187e-07	1.623489e-07	1.623489e-07
# END HISTO1D


# BEGIN HISTO1D //Users/Nappo/work/hep/code/trunk/Examples/Z-benchmarks/inclusive-results/MEPSatNLO-CSS_evol_scheme-3.yoda/MC_VH2BB/jet_bb_Delta_pT
Color=blue
ErrorBars=1
LineColor=orange
LineStyle=dashed
Path=//Users/Nappo/work/hep/code/trunk/Examples/Z-benchmarks/inclusive-results/MEPSatNLO-CSS_evol_scheme-3.yoda/MC_VH2BB/jet_bb_Delta_pT
ScaledBy=1.79911910450933541e-08
Title=Scheme-3
XLabel=~
YLabel=~
# xlow	 xhigh	 val	 errminus	 errplus
0.000000e+00	1.000000e+01	2.361004e-02	1.823235e-03	1.823235e-03
1.000000e+01	2.000000e+01	1.550010e-02	1.020225e-03	1.020225e-03
2.000000e+01	3.000000e+01	1.112794e-02	8.511495e-04	8.511495e-04
3.000000e+01	4.000000e+01	6.453103e-03	3.818568e-04	3.818568e-04
4.000000e+01	5.000000e+01	4.269783e-03	3.001059e-04	3.001059e-04
5.000000e+01	6.000000e+01	3.046945e-03	2.102042e-04	2.102042e-04
6.000000e+01	7.000000e+01	1.808764e-03	1.545782e-04	1.545782e-04
7.000000e+01	8.000000e+01	1.119972e-03	8.188842e-05	8.188842e-05
8.000000e+01	9.000000e+01	9.585484e-04	1.041746e-04	1.041746e-04
9.000000e+01	1.000000e+02	7.089162e-04	6.728950e-05	6.728950e-05
1.000000e+02	1.100000e+02	4.712111e-04	4.219712e-05	4.219712e-05
1.100000e+02	1.200000e+02	3.567090e-04	3.355303e-05	3.355303e-05
1.200000e+02	1.300000e+02	3.470430e-04	7.851033e-05	7.851033e-05
1.300000e+02	1.400000e+02	1.984505e-04	1.623486e-05	1.623486e-05
1.400000e+02	1.500000e+02	2.108252e-04	4.767224e-05	4.767224e-05
1.500000e+02	1.600000e+02	1.514382e-04	1.688902e-05	1.688902e-05
1.600000e+02	1.700000e+02	3.932863e-05	3.099549e-05	3.099549e-05
1.700000e+02	1.800000e+02	7.566692e-05	1.707552e-05	1.707552e-05
1.800000e+02	1.900000e+02	8.223167e-05	1.858660e-05	1.858660e-05
1.900000e+02	2.000000e+02	4.500248e-05	6.486458e-06	6.486458e-06
2.000000e+02	2.100000e+02	5.124892e-05	1.041074e-05	1.041074e-05
2.100000e+02	2.200000e+02	2.849632e-05	4.020790e-06	4.020790e-06
2.200000e+02	2.300000e+02	2.664681e-05	6.183735e-06	6.183735e-06
2.300000e+02	2.400000e+02	1.492794e-05	2.426488e-06	2.426488e-06
2.400000e+02	2.500000e+02	2.473169e-05	8.248188e-06	8.248188e-06
2.500000e+02	2.600000e+02	1.400693e-05	2.479820e-06	2.479820e-06
2.600000e+02	2.700000e+02	2.653878e-05	9.365084e-06	9.365084e-06
2.700000e+02	2.800000e+02	1.116192e-05	2.994193e-06	2.994193e-06
2.800000e+02	2.900000e+02	5.886808e-06	9.750853e-07	9.750853e-07
2.900000e+02	3.000000e+02	5.487268e-06	1.281357e-06	1.281357e-06
3.000000e+02	3.100000e+02	5.346105e-06	1.065634e-06	1.065634e-06
3.100000e+02	3.200000e+02	6.203908e-06	2.364342e-06	2.364342e-06
3.200000e+02	3.300000e+02	5.192649e-06	1.999421e-06	1.999421e-06
3.300000e+02	3.400000e+02	2.971178e-06	8.229605e-07	8.229605e-07
3.400000e+02	3.500000e+02	3.613780e-06	1.272066e-06	1.272066e-06
3.500000e+02	3.600000e+02	7.004791e-06	3.515654e-06	3.515654e-06
3.600000e+02	3.700000e+02	1.822064e-06	5.551965e-07	5.551965e-07
3.700000e+02	3.800000e+02	4.372100e-06	2.445474e-06	2.445474e-06
3.800000e+02	3.900000e+02	8.616377e-07	3.153442e-07	3.153442e-07
3.900000e+02	4.000000e+02	1.147448e-06	3.870993e-07	3.870993e-07
4.000000e+02	4.100000e+02	3.118916e-07	8.234342e-08	8.234342e-08
4.100000e+02	4.200000e+02	5.041538e-07	2.053645e-07	2.053645e-07
4.200000e+02	4.300000e+02	5.477841e-07	1.852564e-07	1.852564e-07
4.300000e+02	4.400000e+02	6.926731e-07	2.504770e-07	2.504770e-07
4.400000e+02	4.500000e+02	8.212095e-07	3.138304e-07	3.138304e-07
4.500000e+02	4.600000e+02	9.018686e-07	8.211493e-07	8.211493e-07
4.600000e+02	4.700000e+02	1.277564e-07	4.772696e-08	4.772696e-08
4.700000e+02	4.800000e+02	6.285976e-07	2.319761e-07	2.319761e-07
4.800000e+02	4.900000e+02	2.693417e-07	1.144341e-07	1.144341e-07
4.900000e+02	5.000000e+02	1.215395e-07	6.432643e-08	6.432643e-08
# END HISTO1D


# BEGIN HISTO1D //Users/Nappo/work/hep/code/trunk/Examples/Z-benchmarks/inclusive-results/MEPSatNLO-Dire.yoda/MC_VH2BB/jet_bb_Delta_pT
ErrorBars=1
LineColor=lilac
LineStyle=solid
Path=//Users/Nappo/work/hep/code/trunk/Examples/Z-benchmarks/inclusive-results/MEPSatNLO-Dire.yoda/MC_VH2BB/jet_bb_Delta_pT
ScaledBy=1.84173425063977230e-08
Title=Dire-NLO
XLabel=~
YLabel=~
# xlow	 xhigh	 val	 errminus	 errplus
0.000000e+00	1.000000e+01	3.899107e-02	4.847012e-03	4.847012e-03
1.000000e+01	2.000000e+01	1.826898e-02	1.268401e-03	1.268401e-03
2.000000e+01	3.000000e+01	1.141636e-02	7.840437e-04	7.840437e-04
3.000000e+01	4.000000e+01	8.586845e-03	9.124885e-04	9.124885e-04
4.000000e+01	5.000000e+01	5.029595e-03	4.450197e-04	4.450197e-04
5.000000e+01	6.000000e+01	3.199333e-03	3.405987e-04	3.405987e-04
6.000000e+01	7.000000e+01	2.769086e-03	3.477467e-04	3.477467e-04
7.000000e+01	8.000000e+01	1.824687e-03	1.872931e-04	1.872931e-04
8.000000e+01	9.000000e+01	1.268328e-03	1.325944e-04	1.325944e-04
9.000000e+01	1.000000e+02	1.045060e-03	1.495920e-04	1.495920e-04
1.000000e+02	1.100000e+02	6.168493e-04	6.367768e-05	6.367768e-05
1.100000e+02	1.200000e+02	5.578500e-04	6.573123e-05	6.573123e-05
1.200000e+02	1.300000e+02	3.297807e-04	4.302366e-05	4.302366e-05
1.300000e+02	1.400000e+02	4.106523e-04	1.268753e-04	1.268753e-04
1.400000e+02	1.500000e+02	1.704850e-04	2.141132e-05	2.141132e-05
1.500000e+02	1.600000e+02	2.117326e-04	2.826481e-05	2.826481e-05
1.600000e+02	1.700000e+02	1.200942e-04	1.639744e-05	1.639744e-05
1.700000e+02	1.800000e+02	8.244326e-05	1.607467e-05	1.607467e-05
1.800000e+02	1.900000e+02	7.907793e-05	1.368105e-05	1.368105e-05
1.900000e+02	2.000000e+02	9.408697e-05	2.593505e-05	2.593505e-05
2.000000e+02	2.100000e+02	7.126226e-05	1.797204e-05	1.797204e-05
2.100000e+02	2.200000e+02	4.615549e-05	1.102882e-05	1.102882e-05
2.200000e+02	2.300000e+02	3.230596e-05	6.910447e-06	6.910447e-06
2.300000e+02	2.400000e+02	2.628038e-05	6.829976e-06	6.829976e-06
2.400000e+02	2.500000e+02	2.254145e-05	4.507943e-06	4.507943e-06
2.500000e+02	2.600000e+02	2.780452e-05	6.194220e-06	6.194220e-06
2.600000e+02	2.700000e+02	1.959842e-05	5.562460e-06	5.562460e-06
2.700000e+02	2.800000e+02	2.165133e-05	8.789394e-06	8.789394e-06
2.800000e+02	2.900000e+02	7.414609e-06	6.254539e-06	6.254539e-06
2.900000e+02	3.000000e+02	8.213186e-06	1.870372e-06	1.870372e-06
3.000000e+02	3.100000e+02	8.259183e-06	2.734647e-06	2.734647e-06
3.100000e+02	3.200000e+02	9.917087e-06	2.824339e-06	2.824339e-06
3.200000e+02	3.300000e+02	8.709336e-06	2.070527e-06	2.070527e-06
3.300000e+02	3.400000e+02	3.757709e-06	9.183876e-07	9.183876e-07
3.400000e+02	3.500000e+02	6.677884e-06	3.723825e-06	3.723825e-06
3.500000e+02	3.600000e+02	3.514936e-06	1.223167e-06	1.223167e-06
3.600000e+02	3.700000e+02	3.230309e-06	1.167930e-06	1.167930e-06
3.700000e+02	3.800000e+02	1.167757e-06	2.850943e-07	2.850943e-07
3.800000e+02	3.900000e+02	1.904671e-06	5.916378e-07	5.916378e-07
3.900000e+02	4.000000e+02	3.363459e-06	1.920399e-06	1.920399e-06
4.000000e+02	4.100000e+02	2.980517e-06	1.521220e-06	1.521220e-06
4.100000e+02	4.200000e+02	8.120315e-07	3.614481e-07	3.614481e-07
4.200000e+02	4.300000e+02	3.735900e-06	1.640447e-06	1.640447e-06
4.300000e+02	4.400000e+02	5.956142e-06	4.199013e-06	4.199013e-06
4.400000e+02	4.500000e+02	7.688549e-07	4.140677e-07	4.140677e-07
4.500000e+02	4.600000e+02	2.074649e-06	9.498577e-07	9.498577e-07
4.600000e+02	4.700000e+02	6.818487e-07	2.654487e-07	2.654487e-07
4.700000e+02	4.800000e+02	1.358240e-06	8.622849e-07	8.622849e-07
4.800000e+02	4.900000e+02	2.309661e-07	8.344119e-08	8.344119e-08
4.900000e+02	5.000000e+02	4.539249e-07	1.851810e-07	1.851810e-07
# END HISTO1D

