# BEGIN PLOT
LegendOnly=//Users/Nappo/work/hep/code/rel-2-2-8/Examples/DeadCone/prompt/Analysis.yoda/MC_XS/XS //Users/Nappo/work/hep/code/rel-2-2-8/Examples/DeadCone/non-prompt/Analysis.yoda/MC_XS/XS
DrawOnly=//Users/Nappo/work/hep/code/rel-2-2-8/Examples/DeadCone/prompt/Analysis.yoda/MC_XS/XS //Users/Nappo/work/hep/code/rel-2-2-8/Examples/DeadCone/non-prompt/Analysis.yoda/MC_XS/XS
Title=Total generated cross section
XMajorTickMarks=20
RatioPlot=1
LogY=0
RatioPlotYLabel=Ratio
RatioPlotReference=//Users/Nappo/work/hep/code/rel-2-2-8/Examples/DeadCone/prompt/Analysis.yoda/MC_XS/XS
XLabel=
ShowZero=0
XMinorTickMarks=0
YLabel=$\sigma_\text{total}$ [pb]
Legend=1
# END PLOT

# BEGIN HISTO1D //Users/Nappo/work/hep/code/rel-2-2-8/Examples/DeadCone/prompt/Analysis.yoda/MC_XS/XS
ErrorBars=1
LineColor=red
LineStyle=solid
Path=//Users/Nappo/work/hep/code/rel-2-2-8/Examples/DeadCone/prompt/Analysis.yoda/MC_XS/XS
Title=prompt
XLabel=~
YLabel=~
# xlow	 xhigh	 val	 errminus	 errplus
-5.000000e-01	5.000000e-01	1.968424e+08	3.807655e+05	3.807655e+05
# END HISTO1D


# BEGIN HISTO1D //Users/Nappo/work/hep/code/rel-2-2-8/Examples/DeadCone/non-prompt/Analysis.yoda/MC_XS/XS
ErrorBars=1
LineColor=blue
LineStyle=solid
Path=//Users/Nappo/work/hep/code/rel-2-2-8/Examples/DeadCone/non-prompt/Analysis.yoda/MC_XS/XS
Title=non-prompt
XLabel=~
YLabel=~
# xlow	 xhigh	 val	 errminus	 errplus
-5.000000e-01	5.000000e-01	3.330120e+07	5.818824e+04	5.818824e+04
# END HISTO1D

