# BEGIN PLOT
LegendOnly=//Users/Nappo/work/hep/code/trunk/Examples/Z-benchmarks/results/LOPS-CSS_evol_scheme-0.yoda/MC_VH2BB/jet_bb_Delta_R //Users/Nappo/work/hep/code/trunk/Examples/Z-benchmarks/results/LOPS-CSS_evol_scheme-1.yoda/MC_VH2BB/jet_bb_Delta_R //Users/Nappo/work/hep/code/trunk/Examples/Z-benchmarks/results/LOPS-CSS_evol_scheme-2.yoda/MC_VH2BB/jet_bb_Delta_R //Users/Nappo/work/hep/code/trunk/Examples/Z-benchmarks/results/LOPS-CSS_evol_scheme-3.yoda/MC_VH2BB/jet_bb_Delta_R //Users/Nappo/work/hep/code/trunk/Examples/Z-benchmarks/results/LOPS-Dire.yoda/MC_VH2BB/jet_bb_Delta_R
DrawOnly=//Users/Nappo/work/hep/code/trunk/Examples/Z-benchmarks/results/LOPS-CSS_evol_scheme-0.yoda/MC_VH2BB/jet_bb_Delta_R //Users/Nappo/work/hep/code/trunk/Examples/Z-benchmarks/results/LOPS-CSS_evol_scheme-1.yoda/MC_VH2BB/jet_bb_Delta_R //Users/Nappo/work/hep/code/trunk/Examples/Z-benchmarks/results/LOPS-CSS_evol_scheme-2.yoda/MC_VH2BB/jet_bb_Delta_R //Users/Nappo/work/hep/code/trunk/Examples/Z-benchmarks/results/LOPS-CSS_evol_scheme-3.yoda/MC_VH2BB/jet_bb_Delta_R //Users/Nappo/work/hep/code/trunk/Examples/Z-benchmarks/results/LOPS-Dire.yoda/MC_VH2BB/jet_bb_Delta_R
RatioPlotReference=//Users/Nappo/work/hep/code/trunk/Examples/Z-benchmarks/results/LOPS-CSS_evol_scheme-0.yoda/MC_VH2BB/jet_bb_Delta_R
RatioPlot=1
LogY=1
RatioPlotYLabel=Ratio
Legend=1
# END PLOT

# BEGIN HISTO1D //Users/Nappo/work/hep/code/trunk/Examples/Z-benchmarks/results/LOPS-CSS_evol_scheme-0.yoda/MC_VH2BB/jet_bb_Delta_R
Color=red
ErrorBars=1
LineColor=red
LineStyle=solid
Path=//Users/Nappo/work/hep/code/trunk/Examples/Z-benchmarks/results/LOPS-CSS_evol_scheme-0.yoda/MC_VH2BB/jet_bb_Delta_R
ScaledBy=1.05779126203065671e-07
Title= 0
XLabel=~
YLabel=~
# xlow	 xhigh	 val	 errminus	 errplus
0.000000e+00	1.000000e-01	0.000000e+00	0.000000e+00	0.000000e+00
1.000000e-01	2.000000e-01	0.000000e+00	0.000000e+00	0.000000e+00
2.000000e-01	3.000000e-01	0.000000e+00	0.000000e+00	0.000000e+00
3.000000e-01	4.000000e-01	0.000000e+00	0.000000e+00	0.000000e+00
4.000000e-01	5.000000e-01	5.996977e-03	2.629935e-03	2.629935e-03
5.000000e-01	6.000000e-01	2.054278e-02	5.773686e-03	5.773686e-03
6.000000e-01	7.000000e-01	2.894887e-02	7.035124e-03	7.035124e-03
7.000000e-01	8.000000e-01	2.979224e-02	7.360764e-03	7.360764e-03
8.000000e-01	9.000000e-01	2.388121e-02	6.157932e-03	6.157932e-03
9.000000e-01	1.000000e+00	1.631675e-02	4.800672e-03	4.800672e-03
1.000000e+00	1.100000e+00	2.147215e-02	5.504461e-03	5.504461e-03
1.100000e+00	1.200000e+00	2.475002e-02	6.019622e-03	6.019622e-03
1.200000e+00	1.300000e+00	1.349728e-02	4.377488e-03	4.377488e-03
1.300000e+00	1.400000e+00	3.380652e-02	7.604294e-03	7.604294e-03
1.400000e+00	1.500000e+00	3.140285e-02	8.386661e-03	8.386661e-03
1.500000e+00	1.600000e+00	2.769146e-02	6.548660e-03	6.548660e-03
1.600000e+00	1.700000e+00	2.295510e-02	5.711418e-03	5.711418e-03
1.700000e+00	1.800000e+00	4.330066e-02	9.145363e-03	9.145363e-03
1.800000e+00	1.900000e+00	3.526844e-02	7.369968e-03	7.369968e-03
1.900000e+00	2.000000e+00	4.356260e-02	8.584115e-03	8.584115e-03
2.000000e+00	2.100000e+00	6.130098e-02	1.019716e-02	1.019716e-02
2.100000e+00	2.200000e+00	7.988121e-02	1.134521e-02	1.134521e-02
2.200000e+00	2.300000e+00	7.118269e-02	1.107509e-02	1.107509e-02
2.300000e+00	2.400000e+00	7.363516e-02	1.124431e-02	1.124431e-02
2.400000e+00	2.500000e+00	1.183593e-01	1.513078e-02	1.513078e-02
2.500000e+00	2.600000e+00	1.218462e-01	1.383491e-02	1.383491e-02
2.600000e+00	2.700000e+00	1.095017e-01	1.351423e-02	1.351423e-02
2.700000e+00	2.800000e+00	1.131948e-01	1.380509e-02	1.380509e-02
2.800000e+00	2.900000e+00	1.214160e-01	1.405481e-02	1.405481e-02
2.900000e+00	3.000000e+00	1.528356e-01	1.568943e-02	1.568943e-02
3.000000e+00	3.100000e+00	2.196476e-01	1.805550e-02	1.805550e-02
3.100000e+00	3.200000e+00	2.941300e-01	2.047311e-02	2.047311e-02
3.200000e+00	3.300000e+00	1.710925e-01	1.640926e-02	1.640926e-02
3.300000e+00	3.400000e+00	1.117412e-01	1.358780e-02	1.358780e-02
3.400000e+00	3.500000e+00	1.006079e-01	1.356525e-02	1.356525e-02
3.500000e+00	3.600000e+00	7.063358e-02	1.102392e-02	1.102392e-02
3.600000e+00	3.700000e+00	6.871090e-02	1.154341e-02	1.154341e-02
3.700000e+00	3.800000e+00	5.221621e-02	9.951790e-03	9.951790e-03
3.800000e+00	3.900000e+00	3.844123e-02	8.671194e-03	8.671194e-03
3.900000e+00	4.000000e+00	2.717328e-02	6.746635e-03	6.746635e-03
4.000000e+00	4.100000e+00	2.060245e-02	6.062915e-03	6.062915e-03
4.100000e+00	4.200000e+00	2.466524e-02	6.899505e-03	6.899505e-03
4.200000e+00	4.300000e+00	2.434826e-02	6.906029e-03	6.906029e-03
4.300000e+00	4.400000e+00	1.671848e-02	5.057966e-03	5.057966e-03
4.400000e+00	4.500000e+00	2.152003e-02	6.372590e-03	6.372590e-03
4.500000e+00	4.600000e+00	1.916052e-02	6.292724e-03	6.292724e-03
4.600000e+00	4.700000e+00	1.658697e-02	5.510006e-03	5.510006e-03
4.700000e+00	4.800000e+00	1.018459e-02	3.979907e-03	3.979907e-03
4.800000e+00	4.900000e+00	1.390473e-02	5.552716e-03	5.552716e-03
4.900000e+00	5.000000e+00	0.000000e+00	0.000000e+00	0.000000e+00
# END HISTO1D


# BEGIN HISTO1D //Users/Nappo/work/hep/code/trunk/Examples/Z-benchmarks/results/LOPS-CSS_evol_scheme-1.yoda/MC_VH2BB/jet_bb_Delta_R
Color=blue
ErrorBars=1
LineColor=blue
LineStyle=solid
Path=//Users/Nappo/work/hep/code/trunk/Examples/Z-benchmarks/results/LOPS-CSS_evol_scheme-1.yoda/MC_VH2BB/jet_bb_Delta_R
ScaledBy=1.12176136276954801e-07
Title=Scheme-1
XLabel=~
YLabel=~
# xlow	 xhigh	 val	 errminus	 errplus
0.000000e+00	1.000000e-01	0.000000e+00	0.000000e+00	0.000000e+00
1.000000e-01	2.000000e-01	0.000000e+00	0.000000e+00	0.000000e+00
2.000000e-01	3.000000e-01	0.000000e+00	0.000000e+00	0.000000e+00
3.000000e-01	4.000000e-01	0.000000e+00	0.000000e+00	0.000000e+00
4.000000e-01	5.000000e-01	1.280136e-03	1.256895e-03	1.256895e-03
5.000000e-01	6.000000e-01	4.184506e-03	2.397974e-03	2.397974e-03
6.000000e-01	7.000000e-01	1.073599e-02	4.418290e-03	4.418290e-03
7.000000e-01	8.000000e-01	1.677652e-02	5.202792e-03	5.202792e-03
8.000000e-01	9.000000e-01	1.359867e-02	4.455834e-03	4.455834e-03
9.000000e-01	1.000000e+00	1.003726e-02	3.925872e-03	3.925872e-03
1.000000e+00	1.100000e+00	1.201281e-02	4.136766e-03	4.136766e-03
1.100000e+00	1.200000e+00	2.486745e-02	7.261563e-03	7.261563e-03
1.200000e+00	1.300000e+00	1.714680e-02	5.281991e-03	5.281991e-03
1.300000e+00	1.400000e+00	1.707967e-02	6.530765e-03	6.530765e-03
1.400000e+00	1.500000e+00	1.809872e-02	4.921416e-03	4.921416e-03
1.500000e+00	1.600000e+00	1.171484e-02	4.060315e-03	4.060315e-03
1.600000e+00	1.700000e+00	1.499683e-02	4.473072e-03	4.473072e-03
1.700000e+00	1.800000e+00	2.986107e-02	7.814077e-03	7.814077e-03
1.800000e+00	1.900000e+00	1.851130e-02	6.478600e-03	6.478600e-03
1.900000e+00	2.000000e+00	2.570447e-02	7.223660e-03	7.223660e-03
2.000000e+00	2.100000e+00	1.869565e-02	5.186094e-03	5.186094e-03
2.100000e+00	2.200000e+00	2.430383e-02	6.146235e-03	6.146235e-03
2.200000e+00	2.300000e+00	2.754040e-02	6.562538e-03	6.562538e-03
2.300000e+00	2.400000e+00	2.516170e-02	6.372245e-03	6.372245e-03
2.400000e+00	2.500000e+00	4.395588e-02	8.462655e-03	8.462655e-03
2.500000e+00	2.600000e+00	2.207231e-02	5.470569e-03	5.470569e-03
2.600000e+00	2.700000e+00	6.014511e-02	1.068693e-02	1.068693e-02
2.700000e+00	2.800000e+00	3.957760e-02	8.404817e-03	8.404817e-03
2.800000e+00	2.900000e+00	5.741570e-02	9.965355e-03	9.965355e-03
2.900000e+00	3.000000e+00	7.045387e-02	1.130183e-02	1.130183e-02
3.000000e+00	3.100000e+00	9.272158e-02	1.213948e-02	1.213948e-02
3.100000e+00	3.200000e+00	1.081339e-01	1.328274e-02	1.328274e-02
3.200000e+00	3.300000e+00	7.617630e-02	1.195054e-02	1.195054e-02
3.300000e+00	3.400000e+00	5.186614e-02	1.001550e-02	1.001550e-02
3.400000e+00	3.500000e+00	5.993200e-02	1.068700e-02	1.068700e-02
3.500000e+00	3.600000e+00	6.088490e-02	1.106762e-02	1.106762e-02
3.600000e+00	3.700000e+00	3.835585e-02	8.514464e-03	8.514464e-03
3.700000e+00	3.800000e+00	3.204163e-02	7.744666e-03	7.744666e-03
3.800000e+00	3.900000e+00	3.245923e-02	7.750964e-03	7.750964e-03
3.900000e+00	4.000000e+00	1.573840e-02	5.088075e-03	5.088075e-03
4.000000e+00	4.100000e+00	3.014300e-02	8.443358e-03	8.443358e-03
4.100000e+00	4.200000e+00	2.073724e-02	6.297584e-03	6.297584e-03
4.200000e+00	4.300000e+00	1.713259e-02	6.766857e-03	6.766857e-03
4.300000e+00	4.400000e+00	6.958846e-03	3.240978e-03	3.240978e-03
4.400000e+00	4.500000e+00	1.807401e-02	5.446196e-03	5.446196e-03
4.500000e+00	4.600000e+00	1.418027e-02	5.228327e-03	5.228327e-03
4.600000e+00	4.700000e+00	4.774041e-03	2.413019e-03	2.413019e-03
4.700000e+00	4.800000e+00	1.167713e-02	5.133481e-03	5.133481e-03
4.800000e+00	4.900000e+00	1.423299e-02	5.792215e-03	5.792215e-03
4.900000e+00	5.000000e+00	1.868092e-02	7.407348e-03	7.407348e-03
# END HISTO1D


# BEGIN HISTO1D //Users/Nappo/work/hep/code/trunk/Examples/Z-benchmarks/results/LOPS-CSS_evol_scheme-2.yoda/MC_VH2BB/jet_bb_Delta_R
Color=red
ErrorBars=1
LineColor=green
LineStyle=dashed
Path=//Users/Nappo/work/hep/code/trunk/Examples/Z-benchmarks/results/LOPS-CSS_evol_scheme-2.yoda/MC_VH2BB/jet_bb_Delta_R
ScaledBy=9.84377825471977110e-08
Title=Scheme-2
XLabel=~
YLabel=~
# xlow	 xhigh	 val	 errminus	 errplus
0.000000e+00	1.000000e-01	0.000000e+00	0.000000e+00	0.000000e+00
1.000000e-01	2.000000e-01	0.000000e+00	0.000000e+00	0.000000e+00
2.000000e-01	3.000000e-01	0.000000e+00	0.000000e+00	0.000000e+00
3.000000e-01	4.000000e-01	0.000000e+00	0.000000e+00	0.000000e+00
4.000000e-01	5.000000e-01	7.053432e-04	7.053433e-04	7.053433e-04
5.000000e-01	6.000000e-01	7.880353e-03	3.138053e-03	3.138053e-03
6.000000e-01	7.000000e-01	6.432359e-03	2.762596e-03	2.762596e-03
7.000000e-01	8.000000e-01	1.475212e-02	4.699610e-03	4.699610e-03
8.000000e-01	9.000000e-01	1.810388e-02	5.359908e-03	5.359908e-03
9.000000e-01	1.000000e+00	1.836321e-02	5.144855e-03	5.144855e-03
1.000000e+00	1.100000e+00	1.489625e-02	4.633612e-03	4.633612e-03
1.100000e+00	1.200000e+00	2.420862e-02	6.170964e-03	6.170964e-03
1.200000e+00	1.300000e+00	1.560330e-02	5.024759e-03	5.024759e-03
1.300000e+00	1.400000e+00	2.599364e-02	5.967913e-03	5.967913e-03
1.400000e+00	1.500000e+00	3.288507e-02	7.368647e-03	7.368647e-03
1.500000e+00	1.600000e+00	3.122043e-02	7.218099e-03	7.218099e-03
1.600000e+00	1.700000e+00	3.210027e-02	7.320154e-03	7.320154e-03
1.700000e+00	1.800000e+00	3.998276e-02	7.458901e-03	7.458901e-03
1.800000e+00	1.900000e+00	3.901520e-02	7.879494e-03	7.879494e-03
1.900000e+00	2.000000e+00	4.600668e-02	8.849572e-03	8.849572e-03
2.000000e+00	2.100000e+00	5.084375e-02	8.815588e-03	8.815588e-03
2.100000e+00	2.200000e+00	6.790219e-02	1.057745e-02	1.057745e-02
2.200000e+00	2.300000e+00	5.519359e-02	9.227292e-03	9.227292e-03
2.300000e+00	2.400000e+00	6.733929e-02	1.017169e-02	1.017169e-02
2.400000e+00	2.500000e+00	7.322408e-02	1.046180e-02	1.046180e-02
2.500000e+00	2.600000e+00	7.035198e-02	1.093015e-02	1.093015e-02
2.600000e+00	2.700000e+00	6.606583e-02	1.017486e-02	1.017486e-02
2.700000e+00	2.800000e+00	8.334823e-02	1.160046e-02	1.160046e-02
2.800000e+00	2.900000e+00	1.064721e-01	1.321518e-02	1.321518e-02
2.900000e+00	3.000000e+00	1.032493e-01	1.234905e-02	1.234905e-02
3.000000e+00	3.100000e+00	1.170444e-01	1.376135e-02	1.376135e-02
3.100000e+00	3.200000e+00	1.048568e-01	1.254799e-02	1.254799e-02
3.200000e+00	3.300000e+00	1.041792e-01	1.301675e-02	1.301675e-02
3.300000e+00	3.400000e+00	7.966641e-02	1.156044e-02	1.156044e-02
3.400000e+00	3.500000e+00	9.148036e-02	1.214928e-02	1.214928e-02
3.500000e+00	3.600000e+00	7.627796e-02	1.131921e-02	1.131921e-02
3.600000e+00	3.700000e+00	4.784901e-02	9.058577e-03	9.058577e-03
3.700000e+00	3.800000e+00	3.798486e-02	8.916959e-03	8.916959e-03
3.800000e+00	3.900000e+00	4.137765e-02	8.564057e-03	8.564057e-03
3.900000e+00	4.000000e+00	2.591419e-02	6.287969e-03	6.287969e-03
4.000000e+00	4.100000e+00	2.914297e-02	6.867780e-03	6.867780e-03
4.100000e+00	4.200000e+00	2.379406e-02	6.217408e-03	6.217408e-03
4.200000e+00	4.300000e+00	2.580714e-02	6.915794e-03	6.915794e-03
4.300000e+00	4.400000e+00	1.437817e-02	4.878347e-03	4.878347e-03
4.400000e+00	4.500000e+00	2.398567e-02	6.323266e-03	6.323266e-03
4.500000e+00	4.600000e+00	1.404268e-02	4.295978e-03	4.295978e-03
4.600000e+00	4.700000e+00	6.820202e-03	3.442840e-03	3.442840e-03
4.700000e+00	4.800000e+00	1.778157e-02	5.526830e-03	5.526830e-03
4.800000e+00	4.900000e+00	8.315860e-03	4.082171e-03	4.082171e-03
4.900000e+00	5.000000e+00	1.114824e-02	4.595228e-03	4.595228e-03
# END HISTO1D


# BEGIN HISTO1D //Users/Nappo/work/hep/code/trunk/Examples/Z-benchmarks/results/LOPS-CSS_evol_scheme-3.yoda/MC_VH2BB/jet_bb_Delta_R
Color=blue
ErrorBars=1
LineColor=orange
LineStyle=dashed
Path=//Users/Nappo/work/hep/code/trunk/Examples/Z-benchmarks/results/LOPS-CSS_evol_scheme-3.yoda/MC_VH2BB/jet_bb_Delta_R
ScaledBy=1.08390897028972991e-07
Title=Scheme-3
XLabel=~
YLabel=~
# xlow	 xhigh	 val	 errminus	 errplus
0.000000e+00	1.000000e-01	0.000000e+00	0.000000e+00	0.000000e+00
1.000000e-01	2.000000e-01	0.000000e+00	0.000000e+00	0.000000e+00
2.000000e-01	3.000000e-01	0.000000e+00	0.000000e+00	0.000000e+00
3.000000e-01	4.000000e-01	0.000000e+00	0.000000e+00	0.000000e+00
4.000000e-01	5.000000e-01	3.440069e-03	2.686940e-03	2.686940e-03
5.000000e-01	6.000000e-01	1.128658e-02	4.648651e-03	4.648651e-03
6.000000e-01	7.000000e-01	1.397397e-02	5.291702e-03	5.291702e-03
7.000000e-01	8.000000e-01	2.077777e-02	5.028870e-03	5.028870e-03
8.000000e-01	9.000000e-01	1.603915e-02	4.951626e-03	4.951626e-03
9.000000e-01	1.000000e+00	1.601837e-02	5.635820e-03	5.635820e-03
1.000000e+00	1.100000e+00	2.767661e-03	1.778429e-03	1.778429e-03
1.100000e+00	1.200000e+00	1.273171e-02	3.852747e-03	3.852747e-03
1.200000e+00	1.300000e+00	2.003227e-02	6.546732e-03	6.546732e-03
1.300000e+00	1.400000e+00	1.859150e-02	5.419166e-03	5.419166e-03
1.400000e+00	1.500000e+00	1.662119e-02	5.672762e-03	5.672762e-03
1.500000e+00	1.600000e+00	1.970910e-02	5.559105e-03	5.559105e-03
1.600000e+00	1.700000e+00	1.341935e-02	4.332722e-03	4.332722e-03
1.700000e+00	1.800000e+00	2.103841e-02	5.917574e-03	5.917574e-03
1.800000e+00	1.900000e+00	2.756136e-02	6.401637e-03	6.401637e-03
1.900000e+00	2.000000e+00	2.924908e-02	7.822060e-03	7.822060e-03
2.000000e+00	2.100000e+00	2.439971e-02	6.215982e-03	6.215982e-03
2.100000e+00	2.200000e+00	3.786866e-02	8.239811e-03	8.239811e-03
2.200000e+00	2.300000e+00	4.511699e-02	8.847128e-03	8.847128e-03
2.300000e+00	2.400000e+00	3.917643e-02	7.892823e-03	7.892823e-03
2.400000e+00	2.500000e+00	4.678367e-02	9.451397e-03	9.451397e-03
2.500000e+00	2.600000e+00	3.985323e-02	8.585873e-03	8.585873e-03
2.600000e+00	2.700000e+00	5.551935e-02	1.096883e-02	1.096883e-02
2.700000e+00	2.800000e+00	4.365188e-02	8.127552e-03	8.127552e-03
2.800000e+00	2.900000e+00	4.799261e-02	8.756210e-03	8.756210e-03
2.900000e+00	3.000000e+00	7.016998e-02	1.106811e-02	1.106811e-02
3.000000e+00	3.100000e+00	9.280468e-02	1.213466e-02	1.213466e-02
3.100000e+00	3.200000e+00	8.519773e-02	1.144827e-02	1.144827e-02
3.200000e+00	3.300000e+00	6.627986e-02	1.040725e-02	1.040725e-02
3.300000e+00	3.400000e+00	6.087163e-02	1.017800e-02	1.017800e-02
3.400000e+00	3.500000e+00	5.065848e-02	9.335862e-03	9.335862e-03
3.500000e+00	3.600000e+00	4.550078e-02	9.231917e-03	9.231917e-03
3.600000e+00	3.700000e+00	2.746027e-02	7.377367e-03	7.377367e-03
3.700000e+00	3.800000e+00	3.527916e-02	7.454867e-03	7.454867e-03
3.800000e+00	3.900000e+00	2.625502e-02	7.721235e-03	7.721235e-03
3.900000e+00	4.000000e+00	2.036636e-02	6.148606e-03	6.148606e-03
4.000000e+00	4.100000e+00	3.452541e-02	8.690694e-03	8.690694e-03
4.100000e+00	4.200000e+00	1.602361e-02	5.173374e-03	5.173374e-03
4.200000e+00	4.300000e+00	2.379295e-02	7.521674e-03	7.521674e-03
4.300000e+00	4.400000e+00	1.270685e-02	4.574253e-03	4.574253e-03
4.400000e+00	4.500000e+00	1.813696e-02	5.765573e-03	5.765573e-03
4.500000e+00	4.600000e+00	4.758288e-03	2.767842e-03	2.767842e-03
4.600000e+00	4.700000e+00	1.634202e-02	6.243208e-03	6.243208e-03
4.700000e+00	4.800000e+00	7.538165e-03	3.298812e-03	3.298812e-03
4.800000e+00	4.900000e+00	7.917365e-03	3.923840e-03	3.923840e-03
4.900000e+00	5.000000e+00	3.064043e-03	3.064042e-03	3.064042e-03
# END HISTO1D


# BEGIN HISTO1D //Users/Nappo/work/hep/code/trunk/Examples/Z-benchmarks/results/LOPS-Dire.yoda/MC_VH2BB/jet_bb_Delta_R
ErrorBars=1
LineColor=lilac
LineStyle=solid
Path=//Users/Nappo/work/hep/code/trunk/Examples/Z-benchmarks/results/LOPS-Dire.yoda/MC_VH2BB/jet_bb_Delta_R
ScaledBy=1.05560137451966174e-07
Title=Dire-NLO
XLabel=~
YLabel=~
# xlow	 xhigh	 val	 errminus	 errplus
0.000000e+00	1.000000e-01	0.000000e+00	0.000000e+00	0.000000e+00
1.000000e-01	2.000000e-01	0.000000e+00	0.000000e+00	0.000000e+00
2.000000e-01	3.000000e-01	0.000000e+00	0.000000e+00	0.000000e+00
3.000000e-01	4.000000e-01	0.000000e+00	0.000000e+00	0.000000e+00
4.000000e-01	5.000000e-01	2.842932e-02	8.658938e-03	8.658938e-03
5.000000e-01	6.000000e-01	5.016847e-02	1.095759e-02	1.095759e-02
6.000000e-01	7.000000e-01	6.176838e-02	1.572262e-02	1.572262e-02
7.000000e-01	8.000000e-01	4.532364e-02	9.182217e-03	9.182217e-03
8.000000e-01	9.000000e-01	4.997627e-02	9.968056e-03	9.968056e-03
9.000000e-01	1.000000e+00	4.833206e-02	1.330831e-02	1.330831e-02
1.000000e+00	1.100000e+00	3.505993e-02	7.641062e-03	7.641062e-03
1.100000e+00	1.200000e+00	3.997462e-02	1.755841e-02	1.755841e-02
1.200000e+00	1.300000e+00	4.134266e-02	1.330687e-02	1.330687e-02
1.300000e+00	1.400000e+00	3.553781e-02	8.530169e-03	8.530169e-03
1.400000e+00	1.500000e+00	5.181497e-02	1.218213e-02	1.218213e-02
1.500000e+00	1.600000e+00	4.807048e-02	1.088456e-02	1.088456e-02
1.600000e+00	1.700000e+00	4.667991e-02	1.142780e-02	1.142780e-02
1.700000e+00	1.800000e+00	4.477513e-02	1.046141e-02	1.046141e-02
1.800000e+00	1.900000e+00	4.012873e-02	1.194828e-02	1.194828e-02
1.900000e+00	2.000000e+00	3.976178e-02	8.737901e-03	8.737901e-03
2.000000e+00	2.100000e+00	4.777404e-02	1.793035e-02	1.793035e-02
2.100000e+00	2.200000e+00	4.412335e-02	9.368629e-03	9.368629e-03
2.200000e+00	2.300000e+00	6.857312e-02	1.124221e-02	1.124221e-02
2.300000e+00	2.400000e+00	6.139259e-02	1.159457e-02	1.159457e-02
2.400000e+00	2.500000e+00	8.869039e-02	1.633681e-02	1.633681e-02
2.500000e+00	2.600000e+00	7.103065e-02	1.208003e-02	1.208003e-02
2.600000e+00	2.700000e+00	7.841842e-02	1.475919e-02	1.475919e-02
2.700000e+00	2.800000e+00	1.062380e-01	1.829439e-02	1.829439e-02
2.800000e+00	2.900000e+00	1.303716e-01	2.007433e-02	2.007433e-02
2.900000e+00	3.000000e+00	1.186852e-01	1.780517e-02	1.780517e-02
3.000000e+00	3.100000e+00	1.418840e-01	2.056414e-02	2.056414e-02
3.100000e+00	3.200000e+00	1.376993e-01	1.915061e-02	1.915061e-02
3.200000e+00	3.300000e+00	1.087192e-01	2.080517e-02	2.080517e-02
3.300000e+00	3.400000e+00	7.195415e-02	1.546708e-02	1.546708e-02
3.400000e+00	3.500000e+00	8.981600e-02	1.622714e-02	1.622714e-02
3.500000e+00	3.600000e+00	6.162398e-02	1.078051e-02	1.078051e-02
3.600000e+00	3.700000e+00	6.795583e-02	1.380792e-02	1.380792e-02
3.700000e+00	3.800000e+00	6.926582e-02	1.697501e-02	1.697501e-02
3.800000e+00	3.900000e+00	6.194635e-02	1.245106e-02	1.245106e-02
3.900000e+00	4.000000e+00	4.061011e-02	1.004409e-02	1.004409e-02
4.000000e+00	4.100000e+00	5.430339e-02	1.193887e-02	1.193887e-02
4.100000e+00	4.200000e+00	2.830917e-02	8.962262e-03	8.962262e-03
4.200000e+00	4.300000e+00	2.410080e-02	7.470152e-03	7.470152e-03
4.300000e+00	4.400000e+00	1.967532e-02	7.527808e-03	7.527808e-03
4.400000e+00	4.500000e+00	2.725694e-02	7.937113e-03	7.937113e-03
4.500000e+00	4.600000e+00	4.173205e-03	2.782560e-03	2.782560e-03
4.600000e+00	4.700000e+00	5.385762e-03	6.642010e-03	6.642010e-03
4.700000e+00	4.800000e+00	1.393544e-02	4.987638e-03	4.987638e-03
4.800000e+00	4.900000e+00	1.658683e-02	6.217722e-03	6.217722e-03
4.900000e+00	5.000000e+00	1.997819e-03	1.489353e-03	1.489353e-03
# END HISTO1D

