# BEGIN PLOT
LegendOnly=//Users/Nappo/work/hep/code/trunk/Examples/Z-benchmarks/results/MCatNLO-CSS_evol_scheme-0.yoda/MC_QCD_PARTONS/log10_R_4 //Users/Nappo/work/hep/code/trunk/Examples/Z-benchmarks/results/MCatNLO-CSS_evol_scheme-1.yoda/MC_QCD_PARTONS/log10_R_4 //Users/Nappo/work/hep/code/trunk/Examples/Z-benchmarks/results/MCatNLO-CSS_evol_scheme-2.yoda/MC_QCD_PARTONS/log10_R_4 //Users/Nappo/work/hep/code/trunk/Examples/Z-benchmarks/results/MCatNLO-CSS_evol_scheme-3.yoda/MC_QCD_PARTONS/log10_R_4 //Users/Nappo/work/hep/code/trunk/Examples/Z-benchmarks/results/MCatNLO-Dire.yoda/MC_QCD_PARTONS/log10_R_4
DrawOnly=//Users/Nappo/work/hep/code/trunk/Examples/Z-benchmarks/results/MCatNLO-CSS_evol_scheme-0.yoda/MC_QCD_PARTONS/log10_R_4 //Users/Nappo/work/hep/code/trunk/Examples/Z-benchmarks/results/MCatNLO-CSS_evol_scheme-1.yoda/MC_QCD_PARTONS/log10_R_4 //Users/Nappo/work/hep/code/trunk/Examples/Z-benchmarks/results/MCatNLO-CSS_evol_scheme-2.yoda/MC_QCD_PARTONS/log10_R_4 //Users/Nappo/work/hep/code/trunk/Examples/Z-benchmarks/results/MCatNLO-CSS_evol_scheme-3.yoda/MC_QCD_PARTONS/log10_R_4 //Users/Nappo/work/hep/code/trunk/Examples/Z-benchmarks/results/MCatNLO-Dire.yoda/MC_QCD_PARTONS/log10_R_4
Title=$\log_{10}$(Integrated $4$ jet rate in $k_\perp$ [GeV])
RatioPlot=1
LogY=1
RatioPlotYLabel=Ratio
RatioPlotReference=//Users/Nappo/work/hep/code/trunk/Examples/Z-benchmarks/results/MCatNLO-CSS_evol_scheme-0.yoda/MC_QCD_PARTONS/log10_R_4
XLabel=$\log_{10}(d_{\text{cut}}/\text{GeV})$
LegendAlign=r
YLabel=$R_{\geq4}$
Legend=1
# END PLOT

# BEGIN HISTO1D //Users/Nappo/work/hep/code/trunk/Examples/Z-benchmarks/results/MCatNLO-CSS_evol_scheme-0.yoda/MC_QCD_PARTONS/log10_R_4
Color=red
ErrorBars=1
LineColor=red
LineStyle=solid
Path=//Users/Nappo/work/hep/code/trunk/Examples/Z-benchmarks/results/MCatNLO-CSS_evol_scheme-0.yoda/MC_QCD_PARTONS/log10_R_4
Title= 0
XLabel=~
YLabel=~
# xlow	 xhigh	 val	 errminus	 errplus
2.000000e-01	2.668814e-01	5.216831e+02	0.000000e+00	0.000000e+00
2.668813e-01	3.337627e-01	5.216831e+02	0.000000e+00	0.000000e+00
3.337627e-01	4.006441e-01	5.216831e+02	0.000000e+00	0.000000e+00
4.006441e-01	4.675255e-01	5.216831e+02	0.000000e+00	0.000000e+00
4.675254e-01	5.344068e-01	5.216831e+02	0.000000e+00	0.000000e+00
5.344068e-01	6.012882e-01	5.216831e+02	0.000000e+00	0.000000e+00
6.012881e-01	6.681695e-01	5.216831e+02	0.000000e+00	0.000000e+00
6.681695e-01	7.350509e-01	5.216831e+02	0.000000e+00	0.000000e+00
7.350509e-01	8.019323e-01	5.216831e+02	0.000000e+00	0.000000e+00
8.019322e-01	8.688136e-01	5.216831e+02	0.000000e+00	0.000000e+00
8.688136e-01	9.356950e-01	5.216831e+02	0.000000e+00	0.000000e+00
9.356950e-01	1.002576e+00	5.216831e+02	0.000000e+00	0.000000e+00
1.002576e+00	1.069458e+00	5.216831e+02	0.000000e+00	0.000000e+00
1.069457e+00	1.136339e+00	5.216831e+02	0.000000e+00	0.000000e+00
1.136339e+00	1.203221e+00	5.216831e+02	0.000000e+00	0.000000e+00
1.203220e+00	1.270102e+00	5.216831e+02	0.000000e+00	0.000000e+00
1.270101e+00	1.336983e+00	5.216831e+02	0.000000e+00	0.000000e+00
1.336983e+00	1.403865e+00	5.216831e+02	0.000000e+00	0.000000e+00
1.403864e+00	1.470746e+00	5.216831e+02	0.000000e+00	0.000000e+00
1.470746e+00	1.537628e+00	5.216831e+02	0.000000e+00	0.000000e+00
1.537627e+00	1.604509e+00	5.216831e+02	0.000000e+00	0.000000e+00
1.604508e+00	1.671390e+00	5.216831e+02	0.000000e+00	0.000000e+00
1.671390e+00	1.738272e+00	5.216831e+02	0.000000e+00	0.000000e+00
1.738271e+00	1.805153e+00	5.216831e+02	0.000000e+00	0.000000e+00
1.805152e+00	1.872034e+00	5.216831e+02	0.000000e+00	0.000000e+00
1.872034e+00	1.938916e+00	5.216831e+02	0.000000e+00	0.000000e+00
1.938915e+00	2.005797e+00	5.216831e+02	0.000000e+00	0.000000e+00
2.005796e+00	2.072678e+00	5.216831e+02	0.000000e+00	0.000000e+00
2.072678e+00	2.139560e+00	5.216831e+02	0.000000e+00	0.000000e+00
2.139559e+00	2.206441e+00	5.216831e+02	0.000000e+00	0.000000e+00
2.206441e+00	2.273323e+00	5.216831e+02	0.000000e+00	0.000000e+00
2.273322e+00	2.340204e+00	5.216831e+02	0.000000e+00	0.000000e+00
2.340203e+00	2.407085e+00	5.216831e+02	0.000000e+00	0.000000e+00
2.407085e+00	2.473967e+00	5.216831e+02	0.000000e+00	0.000000e+00
2.473966e+00	2.540848e+00	5.216831e+02	0.000000e+00	0.000000e+00
2.540847e+00	2.607729e+00	5.216831e+02	0.000000e+00	0.000000e+00
2.607729e+00	2.674611e+00	5.216831e+02	0.000000e+00	0.000000e+00
2.674610e+00	2.741492e+00	5.216831e+02	0.000000e+00	0.000000e+00
2.741491e+00	2.808373e+00	5.216831e+02	0.000000e+00	0.000000e+00
2.808373e+00	2.875255e+00	5.216831e+02	0.000000e+00	0.000000e+00
2.875254e+00	2.942136e+00	5.216831e+02	0.000000e+00	0.000000e+00
2.942135e+00	3.009017e+00	5.216831e+02	0.000000e+00	0.000000e+00
3.009017e+00	3.075899e+00	5.216831e+02	0.000000e+00	0.000000e+00
3.075898e+00	3.142780e+00	5.216831e+02	0.000000e+00	0.000000e+00
3.142780e+00	3.209662e+00	5.216831e+02	0.000000e+00	0.000000e+00
3.209661e+00	3.276543e+00	5.216831e+02	0.000000e+00	0.000000e+00
3.276542e+00	3.343424e+00	5.216831e+02	0.000000e+00	0.000000e+00
3.343424e+00	3.410306e+00	5.216831e+02	0.000000e+00	0.000000e+00
3.410305e+00	3.477187e+00	5.216831e+02	0.000000e+00	0.000000e+00
3.477186e+00	3.544068e+00	5.216831e+02	0.000000e+00	0.000000e+00
# END HISTO1D


# BEGIN HISTO1D //Users/Nappo/work/hep/code/trunk/Examples/Z-benchmarks/results/MCatNLO-CSS_evol_scheme-1.yoda/MC_QCD_PARTONS/log10_R_4
Color=blue
ErrorBars=1
LineColor=blue
LineStyle=solid
Path=//Users/Nappo/work/hep/code/trunk/Examples/Z-benchmarks/results/MCatNLO-CSS_evol_scheme-1.yoda/MC_QCD_PARTONS/log10_R_4
Title=Scheme-1
XLabel=~
YLabel=~
# xlow	 xhigh	 val	 errminus	 errplus
2.000000e-01	2.668814e-01	7.400761e+02	0.000000e+00	0.000000e+00
2.668813e-01	3.337627e-01	7.400761e+02	0.000000e+00	0.000000e+00
3.337627e-01	4.006441e-01	7.400761e+02	0.000000e+00	0.000000e+00
4.006441e-01	4.675255e-01	7.400761e+02	0.000000e+00	0.000000e+00
4.675254e-01	5.344068e-01	7.400761e+02	0.000000e+00	0.000000e+00
5.344068e-01	6.012882e-01	7.400761e+02	0.000000e+00	0.000000e+00
6.012881e-01	6.681695e-01	7.400761e+02	0.000000e+00	0.000000e+00
6.681695e-01	7.350509e-01	7.400761e+02	0.000000e+00	0.000000e+00
7.350509e-01	8.019323e-01	7.400761e+02	0.000000e+00	0.000000e+00
8.019322e-01	8.688136e-01	7.400761e+02	0.000000e+00	0.000000e+00
8.688136e-01	9.356950e-01	7.400761e+02	0.000000e+00	0.000000e+00
9.356950e-01	1.002576e+00	7.400761e+02	0.000000e+00	0.000000e+00
1.002576e+00	1.069458e+00	7.400761e+02	0.000000e+00	0.000000e+00
1.069457e+00	1.136339e+00	7.400761e+02	0.000000e+00	0.000000e+00
1.136339e+00	1.203221e+00	7.400761e+02	0.000000e+00	0.000000e+00
1.203220e+00	1.270102e+00	7.400761e+02	0.000000e+00	0.000000e+00
1.270101e+00	1.336983e+00	7.400761e+02	0.000000e+00	0.000000e+00
1.336983e+00	1.403865e+00	7.400761e+02	0.000000e+00	0.000000e+00
1.403864e+00	1.470746e+00	7.400761e+02	0.000000e+00	0.000000e+00
1.470746e+00	1.537628e+00	7.400761e+02	0.000000e+00	0.000000e+00
1.537627e+00	1.604509e+00	7.400761e+02	0.000000e+00	0.000000e+00
1.604508e+00	1.671390e+00	7.400761e+02	0.000000e+00	0.000000e+00
1.671390e+00	1.738272e+00	7.400761e+02	0.000000e+00	0.000000e+00
1.738271e+00	1.805153e+00	7.400761e+02	0.000000e+00	0.000000e+00
1.805152e+00	1.872034e+00	7.400761e+02	0.000000e+00	0.000000e+00
1.872034e+00	1.938916e+00	7.400761e+02	0.000000e+00	0.000000e+00
1.938915e+00	2.005797e+00	7.400761e+02	0.000000e+00	0.000000e+00
2.005796e+00	2.072678e+00	7.400761e+02	0.000000e+00	0.000000e+00
2.072678e+00	2.139560e+00	7.400761e+02	0.000000e+00	0.000000e+00
2.139559e+00	2.206441e+00	7.400761e+02	0.000000e+00	0.000000e+00
2.206441e+00	2.273323e+00	7.400761e+02	0.000000e+00	0.000000e+00
2.273322e+00	2.340204e+00	7.400761e+02	0.000000e+00	0.000000e+00
2.340203e+00	2.407085e+00	7.400761e+02	0.000000e+00	0.000000e+00
2.407085e+00	2.473967e+00	7.400761e+02	0.000000e+00	0.000000e+00
2.473966e+00	2.540848e+00	7.400761e+02	0.000000e+00	0.000000e+00
2.540847e+00	2.607729e+00	7.400761e+02	0.000000e+00	0.000000e+00
2.607729e+00	2.674611e+00	7.400761e+02	0.000000e+00	0.000000e+00
2.674610e+00	2.741492e+00	7.400761e+02	0.000000e+00	0.000000e+00
2.741491e+00	2.808373e+00	7.400761e+02	0.000000e+00	0.000000e+00
2.808373e+00	2.875255e+00	7.400761e+02	0.000000e+00	0.000000e+00
2.875254e+00	2.942136e+00	7.400761e+02	0.000000e+00	0.000000e+00
2.942135e+00	3.009017e+00	7.400761e+02	0.000000e+00	0.000000e+00
3.009017e+00	3.075899e+00	7.400761e+02	0.000000e+00	0.000000e+00
3.075898e+00	3.142780e+00	7.400761e+02	0.000000e+00	0.000000e+00
3.142780e+00	3.209662e+00	7.400761e+02	0.000000e+00	0.000000e+00
3.209661e+00	3.276543e+00	7.400761e+02	0.000000e+00	0.000000e+00
3.276542e+00	3.343424e+00	7.400761e+02	0.000000e+00	0.000000e+00
3.343424e+00	3.410306e+00	7.400761e+02	0.000000e+00	0.000000e+00
3.410305e+00	3.477187e+00	7.400761e+02	0.000000e+00	0.000000e+00
3.477186e+00	3.544068e+00	7.400761e+02	0.000000e+00	0.000000e+00
# END HISTO1D


# BEGIN HISTO1D //Users/Nappo/work/hep/code/trunk/Examples/Z-benchmarks/results/MCatNLO-CSS_evol_scheme-2.yoda/MC_QCD_PARTONS/log10_R_4
Color=red
ErrorBars=1
LineColor=green
LineStyle=dashed
Path=//Users/Nappo/work/hep/code/trunk/Examples/Z-benchmarks/results/MCatNLO-CSS_evol_scheme-2.yoda/MC_QCD_PARTONS/log10_R_4
Title=Scheme-2
XLabel=~
YLabel=~
# xlow	 xhigh	 val	 errminus	 errplus
2.000000e-01	2.668814e-01	7.216324e+02	0.000000e+00	0.000000e+00
2.668813e-01	3.337627e-01	7.216324e+02	0.000000e+00	0.000000e+00
3.337627e-01	4.006441e-01	7.216324e+02	0.000000e+00	0.000000e+00
4.006441e-01	4.675255e-01	7.216324e+02	0.000000e+00	0.000000e+00
4.675254e-01	5.344068e-01	7.216324e+02	0.000000e+00	0.000000e+00
5.344068e-01	6.012882e-01	7.216324e+02	0.000000e+00	0.000000e+00
6.012881e-01	6.681695e-01	7.216324e+02	0.000000e+00	0.000000e+00
6.681695e-01	7.350509e-01	7.216324e+02	0.000000e+00	0.000000e+00
7.350509e-01	8.019323e-01	7.216324e+02	0.000000e+00	0.000000e+00
8.019322e-01	8.688136e-01	7.216324e+02	0.000000e+00	0.000000e+00
8.688136e-01	9.356950e-01	7.216324e+02	0.000000e+00	0.000000e+00
9.356950e-01	1.002576e+00	7.216324e+02	0.000000e+00	0.000000e+00
1.002576e+00	1.069458e+00	7.216324e+02	0.000000e+00	0.000000e+00
1.069457e+00	1.136339e+00	7.216324e+02	0.000000e+00	0.000000e+00
1.136339e+00	1.203221e+00	7.216324e+02	0.000000e+00	0.000000e+00
1.203220e+00	1.270102e+00	7.216324e+02	0.000000e+00	0.000000e+00
1.270101e+00	1.336983e+00	7.216324e+02	0.000000e+00	0.000000e+00
1.336983e+00	1.403865e+00	7.216324e+02	0.000000e+00	0.000000e+00
1.403864e+00	1.470746e+00	7.216324e+02	0.000000e+00	0.000000e+00
1.470746e+00	1.537628e+00	7.216324e+02	0.000000e+00	0.000000e+00
1.537627e+00	1.604509e+00	7.216324e+02	0.000000e+00	0.000000e+00
1.604508e+00	1.671390e+00	7.216324e+02	0.000000e+00	0.000000e+00
1.671390e+00	1.738272e+00	7.216324e+02	0.000000e+00	0.000000e+00
1.738271e+00	1.805153e+00	7.216324e+02	0.000000e+00	0.000000e+00
1.805152e+00	1.872034e+00	7.216324e+02	0.000000e+00	0.000000e+00
1.872034e+00	1.938916e+00	7.216324e+02	0.000000e+00	0.000000e+00
1.938915e+00	2.005797e+00	7.216324e+02	0.000000e+00	0.000000e+00
2.005796e+00	2.072678e+00	7.216324e+02	0.000000e+00	0.000000e+00
2.072678e+00	2.139560e+00	7.216324e+02	0.000000e+00	0.000000e+00
2.139559e+00	2.206441e+00	7.216324e+02	0.000000e+00	0.000000e+00
2.206441e+00	2.273323e+00	7.216324e+02	0.000000e+00	0.000000e+00
2.273322e+00	2.340204e+00	7.216324e+02	0.000000e+00	0.000000e+00
2.340203e+00	2.407085e+00	7.216324e+02	0.000000e+00	0.000000e+00
2.407085e+00	2.473967e+00	7.216324e+02	0.000000e+00	0.000000e+00
2.473966e+00	2.540848e+00	7.216324e+02	0.000000e+00	0.000000e+00
2.540847e+00	2.607729e+00	7.216324e+02	0.000000e+00	0.000000e+00
2.607729e+00	2.674611e+00	7.216324e+02	0.000000e+00	0.000000e+00
2.674610e+00	2.741492e+00	7.216324e+02	0.000000e+00	0.000000e+00
2.741491e+00	2.808373e+00	7.216324e+02	0.000000e+00	0.000000e+00
2.808373e+00	2.875255e+00	7.216324e+02	0.000000e+00	0.000000e+00
2.875254e+00	2.942136e+00	7.216324e+02	0.000000e+00	0.000000e+00
2.942135e+00	3.009017e+00	7.216324e+02	0.000000e+00	0.000000e+00
3.009017e+00	3.075899e+00	7.216324e+02	0.000000e+00	0.000000e+00
3.075898e+00	3.142780e+00	7.216324e+02	0.000000e+00	0.000000e+00
3.142780e+00	3.209662e+00	7.216324e+02	0.000000e+00	0.000000e+00
3.209661e+00	3.276543e+00	7.216324e+02	0.000000e+00	0.000000e+00
3.276542e+00	3.343424e+00	7.216324e+02	0.000000e+00	0.000000e+00
3.343424e+00	3.410306e+00	7.216324e+02	0.000000e+00	0.000000e+00
3.410305e+00	3.477187e+00	7.216324e+02	0.000000e+00	0.000000e+00
3.477186e+00	3.544068e+00	7.216324e+02	0.000000e+00	0.000000e+00
# END HISTO1D


# BEGIN HISTO1D //Users/Nappo/work/hep/code/trunk/Examples/Z-benchmarks/results/MCatNLO-CSS_evol_scheme-3.yoda/MC_QCD_PARTONS/log10_R_4
Color=blue
ErrorBars=1
LineColor=orange
LineStyle=dashed
Path=//Users/Nappo/work/hep/code/trunk/Examples/Z-benchmarks/results/MCatNLO-CSS_evol_scheme-3.yoda/MC_QCD_PARTONS/log10_R_4
Title=Scheme-3
XLabel=~
YLabel=~
# xlow	 xhigh	 val	 errminus	 errplus
2.000000e-01	2.668814e-01	8.101465e+02	0.000000e+00	0.000000e+00
2.668813e-01	3.337627e-01	8.101465e+02	0.000000e+00	0.000000e+00
3.337627e-01	4.006441e-01	8.101465e+02	0.000000e+00	0.000000e+00
4.006441e-01	4.675255e-01	8.101465e+02	0.000000e+00	0.000000e+00
4.675254e-01	5.344068e-01	8.101465e+02	0.000000e+00	0.000000e+00
5.344068e-01	6.012882e-01	8.101465e+02	0.000000e+00	0.000000e+00
6.012881e-01	6.681695e-01	8.101465e+02	0.000000e+00	0.000000e+00
6.681695e-01	7.350509e-01	8.101465e+02	0.000000e+00	0.000000e+00
7.350509e-01	8.019323e-01	8.101465e+02	0.000000e+00	0.000000e+00
8.019322e-01	8.688136e-01	8.101465e+02	0.000000e+00	0.000000e+00
8.688136e-01	9.356950e-01	8.101465e+02	0.000000e+00	0.000000e+00
9.356950e-01	1.002576e+00	8.101465e+02	0.000000e+00	0.000000e+00
1.002576e+00	1.069458e+00	8.101465e+02	0.000000e+00	0.000000e+00
1.069457e+00	1.136339e+00	8.101465e+02	0.000000e+00	0.000000e+00
1.136339e+00	1.203221e+00	8.101465e+02	0.000000e+00	0.000000e+00
1.203220e+00	1.270102e+00	8.101465e+02	0.000000e+00	0.000000e+00
1.270101e+00	1.336983e+00	8.101465e+02	0.000000e+00	0.000000e+00
1.336983e+00	1.403865e+00	8.101465e+02	0.000000e+00	0.000000e+00
1.403864e+00	1.470746e+00	8.101465e+02	0.000000e+00	0.000000e+00
1.470746e+00	1.537628e+00	8.101465e+02	0.000000e+00	0.000000e+00
1.537627e+00	1.604509e+00	8.101465e+02	0.000000e+00	0.000000e+00
1.604508e+00	1.671390e+00	8.101465e+02	0.000000e+00	0.000000e+00
1.671390e+00	1.738272e+00	8.101465e+02	0.000000e+00	0.000000e+00
1.738271e+00	1.805153e+00	8.101465e+02	0.000000e+00	0.000000e+00
1.805152e+00	1.872034e+00	8.101465e+02	0.000000e+00	0.000000e+00
1.872034e+00	1.938916e+00	8.101465e+02	0.000000e+00	0.000000e+00
1.938915e+00	2.005797e+00	8.101465e+02	0.000000e+00	0.000000e+00
2.005796e+00	2.072678e+00	8.101465e+02	0.000000e+00	0.000000e+00
2.072678e+00	2.139560e+00	8.101465e+02	0.000000e+00	0.000000e+00
2.139559e+00	2.206441e+00	8.101465e+02	0.000000e+00	0.000000e+00
2.206441e+00	2.273323e+00	8.101465e+02	0.000000e+00	0.000000e+00
2.273322e+00	2.340204e+00	8.101465e+02	0.000000e+00	0.000000e+00
2.340203e+00	2.407085e+00	8.101465e+02	0.000000e+00	0.000000e+00
2.407085e+00	2.473967e+00	8.101465e+02	0.000000e+00	0.000000e+00
2.473966e+00	2.540848e+00	8.101465e+02	0.000000e+00	0.000000e+00
2.540847e+00	2.607729e+00	8.101465e+02	0.000000e+00	0.000000e+00
2.607729e+00	2.674611e+00	8.101465e+02	0.000000e+00	0.000000e+00
2.674610e+00	2.741492e+00	8.101465e+02	0.000000e+00	0.000000e+00
2.741491e+00	2.808373e+00	8.101465e+02	0.000000e+00	0.000000e+00
2.808373e+00	2.875255e+00	8.101465e+02	0.000000e+00	0.000000e+00
2.875254e+00	2.942136e+00	8.101465e+02	0.000000e+00	0.000000e+00
2.942135e+00	3.009017e+00	8.101465e+02	0.000000e+00	0.000000e+00
3.009017e+00	3.075899e+00	8.101465e+02	0.000000e+00	0.000000e+00
3.075898e+00	3.142780e+00	8.101465e+02	0.000000e+00	0.000000e+00
3.142780e+00	3.209662e+00	8.101465e+02	0.000000e+00	0.000000e+00
3.209661e+00	3.276543e+00	8.101465e+02	0.000000e+00	0.000000e+00
3.276542e+00	3.343424e+00	8.101465e+02	0.000000e+00	0.000000e+00
3.343424e+00	3.410306e+00	8.101465e+02	0.000000e+00	0.000000e+00
3.410305e+00	3.477187e+00	8.101465e+02	0.000000e+00	0.000000e+00
3.477186e+00	3.544068e+00	8.101465e+02	0.000000e+00	0.000000e+00
# END HISTO1D


# BEGIN HISTO1D //Users/Nappo/work/hep/code/trunk/Examples/Z-benchmarks/results/MCatNLO-Dire.yoda/MC_QCD_PARTONS/log10_R_4
ErrorBars=1
LineColor=lilac
LineStyle=solid
Path=//Users/Nappo/work/hep/code/trunk/Examples/Z-benchmarks/results/MCatNLO-Dire.yoda/MC_QCD_PARTONS/log10_R_4
Title=Dire-NLO
XLabel=~
YLabel=~
# xlow	 xhigh	 val	 errminus	 errplus
2.000000e-01	2.668814e-01	6.049083e+02	0.000000e+00	0.000000e+00
2.668813e-01	3.337627e-01	6.049083e+02	0.000000e+00	0.000000e+00
3.337627e-01	4.006441e-01	6.049083e+02	0.000000e+00	0.000000e+00
4.006441e-01	4.675255e-01	6.049083e+02	0.000000e+00	0.000000e+00
4.675254e-01	5.344068e-01	6.049083e+02	0.000000e+00	0.000000e+00
5.344068e-01	6.012882e-01	6.049083e+02	0.000000e+00	0.000000e+00
6.012881e-01	6.681695e-01	6.049083e+02	0.000000e+00	0.000000e+00
6.681695e-01	7.350509e-01	6.049083e+02	0.000000e+00	0.000000e+00
7.350509e-01	8.019323e-01	6.049083e+02	0.000000e+00	0.000000e+00
8.019322e-01	8.688136e-01	6.049083e+02	0.000000e+00	0.000000e+00
8.688136e-01	9.356950e-01	6.049083e+02	0.000000e+00	0.000000e+00
9.356950e-01	1.002576e+00	6.049083e+02	0.000000e+00	0.000000e+00
1.002576e+00	1.069458e+00	6.049083e+02	0.000000e+00	0.000000e+00
1.069457e+00	1.136339e+00	6.049083e+02	0.000000e+00	0.000000e+00
1.136339e+00	1.203221e+00	6.049083e+02	0.000000e+00	0.000000e+00
1.203220e+00	1.270102e+00	6.049083e+02	0.000000e+00	0.000000e+00
1.270101e+00	1.336983e+00	6.049083e+02	0.000000e+00	0.000000e+00
1.336983e+00	1.403865e+00	6.049083e+02	0.000000e+00	0.000000e+00
1.403864e+00	1.470746e+00	6.049083e+02	0.000000e+00	0.000000e+00
1.470746e+00	1.537628e+00	6.049083e+02	0.000000e+00	0.000000e+00
1.537627e+00	1.604509e+00	6.049083e+02	0.000000e+00	0.000000e+00
1.604508e+00	1.671390e+00	6.049083e+02	0.000000e+00	0.000000e+00
1.671390e+00	1.738272e+00	6.049083e+02	0.000000e+00	0.000000e+00
1.738271e+00	1.805153e+00	6.049083e+02	0.000000e+00	0.000000e+00
1.805152e+00	1.872034e+00	6.049083e+02	0.000000e+00	0.000000e+00
1.872034e+00	1.938916e+00	6.049083e+02	0.000000e+00	0.000000e+00
1.938915e+00	2.005797e+00	6.049083e+02	0.000000e+00	0.000000e+00
2.005796e+00	2.072678e+00	6.049083e+02	0.000000e+00	0.000000e+00
2.072678e+00	2.139560e+00	6.049083e+02	0.000000e+00	0.000000e+00
2.139559e+00	2.206441e+00	6.049083e+02	0.000000e+00	0.000000e+00
2.206441e+00	2.273323e+00	6.049083e+02	0.000000e+00	0.000000e+00
2.273322e+00	2.340204e+00	6.049083e+02	0.000000e+00	0.000000e+00
2.340203e+00	2.407085e+00	6.049083e+02	0.000000e+00	0.000000e+00
2.407085e+00	2.473967e+00	6.049083e+02	0.000000e+00	0.000000e+00
2.473966e+00	2.540848e+00	6.049083e+02	0.000000e+00	0.000000e+00
2.540847e+00	2.607729e+00	6.049083e+02	0.000000e+00	0.000000e+00
2.607729e+00	2.674611e+00	6.049083e+02	0.000000e+00	0.000000e+00
2.674610e+00	2.741492e+00	6.049083e+02	0.000000e+00	0.000000e+00
2.741491e+00	2.808373e+00	6.049083e+02	0.000000e+00	0.000000e+00
2.808373e+00	2.875255e+00	6.049083e+02	0.000000e+00	0.000000e+00
2.875254e+00	2.942136e+00	6.049083e+02	0.000000e+00	0.000000e+00
2.942135e+00	3.009017e+00	6.049083e+02	0.000000e+00	0.000000e+00
3.009017e+00	3.075899e+00	6.049083e+02	0.000000e+00	0.000000e+00
3.075898e+00	3.142780e+00	6.049083e+02	0.000000e+00	0.000000e+00
3.142780e+00	3.209662e+00	6.049083e+02	0.000000e+00	0.000000e+00
3.209661e+00	3.276543e+00	6.049083e+02	0.000000e+00	0.000000e+00
3.276542e+00	3.343424e+00	6.049083e+02	0.000000e+00	0.000000e+00
3.343424e+00	3.410306e+00	6.049083e+02	0.000000e+00	0.000000e+00
3.410305e+00	3.477187e+00	6.049083e+02	0.000000e+00	0.000000e+00
3.477186e+00	3.544068e+00	6.049083e+02	0.000000e+00	0.000000e+00
# END HISTO1D

