# BEGIN PLOT
LegendOnly=//Users/Nappo/work/hep/code/rel-2-2-8/Examples/DeadCone/prompt/Analysis.yoda/deadcone/eerad_A_kt_C //Users/Nappo/work/hep/code/rel-2-2-8/Examples/DeadCone/non-prompt/Analysis.yoda/deadcone/eerad_A_kt_C
DrawOnly=//Users/Nappo/work/hep/code/rel-2-2-8/Examples/DeadCone/prompt/Analysis.yoda/deadcone/eerad_A_kt_C //Users/Nappo/work/hep/code/rel-2-2-8/Examples/DeadCone/non-prompt/Analysis.yoda/deadcone/eerad_A_kt_C
Title=$E_{\text{rad}} \in \left[5,\,15\right]$~GeV and $k_\perp\geq \Lambda_{QCD}/2$
RatioPlot=1
LogX=1
LogY=0
RatioPlotYLabel=Ratio
RatioPlotReference=//Users/Nappo/work/hep/code/rel-2-2-8/Examples/DeadCone/prompt/Analysis.yoda/deadcone/eerad_A_kt_C
XLabel=\log 1/$\Delta(R)$
YLabel=$\text{d}\sigma/\text{d}R$~[pb]
Legend=1
# END PLOT

# BEGIN HISTO1D //Users/Nappo/work/hep/code/rel-2-2-8/Examples/DeadCone/prompt/Analysis.yoda/deadcone/eerad_A_kt_C
ErrorBars=1
LineColor=red
LineStyle=solid
Path=//Users/Nappo/work/hep/code/rel-2-2-8/Examples/DeadCone/prompt/Analysis.yoda/deadcone/eerad_A_kt_C
ScaledBy=3.38139421646333202e-07
Title=prompt
XLabel=~
YLabel=~
# xlow	 xhigh	 val	 errminus	 errplus
1.000001e+00	1.056469e+00	3.221331e+07	6.206920e+05	6.206920e+05
1.056469e+00	1.116124e+00	3.156783e+07	6.062604e+05	6.062604e+05
1.116124e+00	1.179149e+00	2.844906e+07	5.402167e+05	5.402167e+05
1.179149e+00	1.245732e+00	2.500861e+07	4.888110e+05	4.888110e+05
1.245732e+00	1.316075e+00	2.250933e+07	4.590769e+05	4.590769e+05
1.316075e+00	1.390390e+00	2.052851e+07	4.389678e+05	4.389678e+05
1.390390e+00	1.468902e+00	1.761017e+07	3.832524e+05	3.832524e+05
1.468902e+00	1.551847e+00	1.431933e+07	3.425928e+05	3.425928e+05
1.551847e+00	1.639475e+00	1.229351e+07	3.009388e+05	3.009388e+05
1.639475e+00	1.732052e+00	1.082190e+07	2.939151e+05	2.939151e+05
1.732052e+00	1.829856e+00	8.801555e+06	2.405711e+05	2.405711e+05
1.829856e+00	1.933183e+00	7.520320e+06	2.098631e+05	2.098631e+05
1.933183e+00	2.042344e+00	5.752698e+06	1.806568e+05	1.806568e+05
2.042344e+00	2.157670e+00	4.577321e+06	1.592207e+05	1.592207e+05
2.157670e+00	2.279507e+00	3.414129e+06	1.322503e+05	1.322503e+05
2.279507e+00	2.408225e+00	2.669059e+06	1.153266e+05	1.153266e+05
2.408225e+00	2.544211e+00	1.862308e+06	9.027934e+04	9.027934e+04
2.544211e+00	2.687875e+00	1.238889e+06	7.686202e+04	7.686202e+04
2.687875e+00	2.839652e+00	6.776356e+05	5.509227e+04	5.509227e+04
2.839652e+00	2.999999e+00	4.439119e+05	3.891886e+04	3.891886e+04
# END HISTO1D


# BEGIN HISTO1D //Users/Nappo/work/hep/code/rel-2-2-8/Examples/DeadCone/non-prompt/Analysis.yoda/deadcone/eerad_A_kt_C
ErrorBars=1
LineColor=blue
LineStyle=solid
Path=//Users/Nappo/work/hep/code/rel-2-2-8/Examples/DeadCone/non-prompt/Analysis.yoda/deadcone/eerad_A_kt_C
ScaledBy=3.50513028394008922e-07
Title=non-prompt
XLabel=~
YLabel=~
# xlow	 xhigh	 val	 errminus	 errplus
1.000001e+00	1.056469e+00	1.201517e+07	1.517849e+05	1.517849e+05
1.056469e+00	1.116124e+00	1.173581e+07	1.472221e+05	1.472221e+05
1.116124e+00	1.179149e+00	1.098578e+07	1.378233e+05	1.378233e+05
1.179149e+00	1.245732e+00	9.762593e+06	1.265912e+05	1.265912e+05
1.245732e+00	1.316075e+00	8.535486e+06	1.180183e+05	1.180183e+05
1.316075e+00	1.390390e+00	7.231548e+06	1.026516e+05	1.026516e+05
1.390390e+00	1.468902e+00	6.371049e+06	9.380652e+04	9.380652e+04
1.468902e+00	1.551847e+00	5.455355e+06	8.411481e+04	8.411481e+04
1.551847e+00	1.639475e+00	4.706844e+06	7.557474e+04	7.557474e+04
1.639475e+00	1.732052e+00	4.151048e+06	7.019732e+04	7.019732e+04
1.732052e+00	1.829856e+00	3.614121e+06	6.306016e+04	6.306016e+04
1.829856e+00	1.933183e+00	2.927475e+06	5.455581e+04	5.455581e+04
1.933183e+00	2.042344e+00	2.349411e+06	4.666262e+04	4.666262e+04
2.042344e+00	2.157670e+00	2.071098e+06	4.469913e+04	4.469913e+04
2.157670e+00	2.279507e+00	1.493094e+06	3.571731e+04	3.571731e+04
2.279507e+00	2.408225e+00	1.143128e+06	3.027120e+04	3.027120e+04
2.408225e+00	2.544211e+00	8.506376e+05	2.508032e+04	2.508032e+04
2.544211e+00	2.687875e+00	5.704350e+05	1.988937e+04	1.988937e+04
2.687875e+00	2.839652e+00	3.984154e+05	1.575279e+04	1.575279e+04
2.839652e+00	2.999999e+00	2.475082e+05	1.251492e+04	1.251492e+04
# END HISTO1D

