# BEGIN PLOT
RatioPlotReference=/ATLAS_2013_I1230812/d12-x01-y01
LegendOnly=/ATLAS_2013_I1230812/d12-x01-y01 //Users/Nappo/work/hep/code/trunk/Examples/Z-benchmarks/inclusive-results/MEPSatNLO-CSS_evol_scheme-0.yoda/ATLAS_2013_I1230812/d12-x01-y01 //Users/Nappo/work/hep/code/trunk/Examples/Z-benchmarks/inclusive-results/MEPSatNLO-CSS_evol_scheme-1.yoda/ATLAS_2013_I1230812/d12-x01-y01 //Users/Nappo/work/hep/code/trunk/Examples/Z-benchmarks/inclusive-results/MEPSatNLO-CSS_evol_scheme-2.yoda/ATLAS_2013_I1230812/d12-x01-y01 //Users/Nappo/work/hep/code/trunk/Examples/Z-benchmarks/inclusive-results/MEPSatNLO-CSS_evol_scheme-3.yoda/ATLAS_2013_I1230812/d12-x01-y01 //Users/Nappo/work/hep/code/trunk/Examples/Z-benchmarks/inclusive-results/MEPSatNLO-Dire.yoda/ATLAS_2013_I1230812/d12-x01-y01
XLabel=$p_\perp$(4th jet) [GeV]
LegendAlign=r
YLabel=d$\sigma$/d$p_\perp$ [pb/GeV]
DrawOnly=/ATLAS_2013_I1230812/d12-x01-y01 //Users/Nappo/work/hep/code/trunk/Examples/Z-benchmarks/inclusive-results/MEPSatNLO-CSS_evol_scheme-0.yoda/ATLAS_2013_I1230812/d12-x01-y01 //Users/Nappo/work/hep/code/trunk/Examples/Z-benchmarks/inclusive-results/MEPSatNLO-CSS_evol_scheme-1.yoda/ATLAS_2013_I1230812/d12-x01-y01 //Users/Nappo/work/hep/code/trunk/Examples/Z-benchmarks/inclusive-results/MEPSatNLO-CSS_evol_scheme-2.yoda/ATLAS_2013_I1230812/d12-x01-y01 //Users/Nappo/work/hep/code/trunk/Examples/Z-benchmarks/inclusive-results/MEPSatNLO-CSS_evol_scheme-3.yoda/ATLAS_2013_I1230812/d12-x01-y01 //Users/Nappo/work/hep/code/trunk/Examples/Z-benchmarks/inclusive-results/MEPSatNLO-Dire.yoda/ATLAS_2013_I1230812/d12-x01-y01
RatioPlot=1
Title=Transverse momentum of 4th jet
Legend=1
LogY=1
# END PLOT

# BEGIN HISTO1D /ATLAS_2013_I1230812/d12-x01-y01
ConnectBins=0
ErrorBars=1
IsRef=1
Path=/ATLAS_2013_I1230812/d12-x01-y01
PolyMarker=*
Title=Data
# xlow	 xhigh	 val	 errminus	 errplus
3.000000e+01	3.500000e+01	5.297000e-02	9.149137e-03	9.149137e-03
3.500000e+01	4.000000e+01	2.908000e-02	4.676847e-03	4.676847e-03
4.000000e+01	5.000000e+01	1.346000e-02	1.991833e-03	1.991833e-03
5.000000e+01	6.000000e+01	5.514000e-03	7.443830e-04	7.443830e-04
6.000000e+01	7.000000e+01	2.538000e-03	3.335776e-04	3.335776e-04
7.000000e+01	8.000000e+01	1.310000e-03	1.754366e-04	1.754366e-04
8.000000e+01	1.000000e+02	5.608000e-04	9.590501e-05	9.590501e-05
# END HISTO1D


# BEGIN HISTO1D //Users/Nappo/work/hep/code/trunk/Examples/Z-benchmarks/inclusive-results/MEPSatNLO-CSS_evol_scheme-0.yoda/ATLAS_2013_I1230812/d12-x01-y01
Color=red
ErrorBars=1
LineColor=red
LineStyle=solid
Path=//Users/Nappo/work/hep/code/trunk/Examples/Z-benchmarks/inclusive-results/MEPSatNLO-CSS_evol_scheme-0.yoda/ATLAS_2013_I1230812/d12-x01-y01
ScaledBy=8.19716798994096047e-09
Title= 0
XLabel=~
YLabel=~
# xlow	 xhigh	 val	 errminus	 errplus
3.000000e+01	3.500000e+01	3.731522e-02	2.093450e-03	2.093450e-03
3.500000e+01	4.000000e+01	1.702046e-02	4.301695e-04	4.301695e-04
4.000000e+01	5.000000e+01	7.729207e-03	2.204018e-04	2.204018e-04
5.000000e+01	6.000000e+01	3.310497e-03	4.516024e-04	4.516024e-04
6.000000e+01	7.000000e+01	1.171952e-03	6.213618e-05	6.213618e-05
7.000000e+01	8.000000e+01	5.690352e-04	3.800159e-05	3.800159e-05
8.000000e+01	1.000000e+02	2.031986e-04	9.858370e-06	9.858370e-06
# END HISTO1D


# BEGIN HISTO1D //Users/Nappo/work/hep/code/trunk/Examples/Z-benchmarks/inclusive-results/MEPSatNLO-CSS_evol_scheme-1.yoda/ATLAS_2013_I1230812/d12-x01-y01
Color=blue
ErrorBars=1
LineColor=blue
LineStyle=solid
Path=//Users/Nappo/work/hep/code/trunk/Examples/Z-benchmarks/inclusive-results/MEPSatNLO-CSS_evol_scheme-1.yoda/ATLAS_2013_I1230812/d12-x01-y01
ScaledBy=9.00896420767348982e-09
Title=Scheme-1
XLabel=~
YLabel=~
# xlow	 xhigh	 val	 errminus	 errplus
3.000000e+01	3.500000e+01	3.446870e-02	1.047881e-03	1.047881e-03
3.500000e+01	4.000000e+01	1.658884e-02	4.570005e-04	4.570005e-04
4.000000e+01	5.000000e+01	8.388663e-03	7.529433e-04	7.529433e-04
5.000000e+01	6.000000e+01	2.689015e-03	8.214796e-05	8.214796e-05
6.000000e+01	7.000000e+01	1.235051e-03	7.182341e-05	7.182341e-05
7.000000e+01	8.000000e+01	5.578813e-04	4.678065e-05	4.678065e-05
8.000000e+01	1.000000e+02	1.902707e-04	8.845975e-06	8.845975e-06
# END HISTO1D


# BEGIN HISTO1D //Users/Nappo/work/hep/code/trunk/Examples/Z-benchmarks/inclusive-results/MEPSatNLO-CSS_evol_scheme-2.yoda/ATLAS_2013_I1230812/d12-x01-y01
Color=red
ErrorBars=1
LineColor=green
LineStyle=dashed
Path=//Users/Nappo/work/hep/code/trunk/Examples/Z-benchmarks/inclusive-results/MEPSatNLO-CSS_evol_scheme-2.yoda/ATLAS_2013_I1230812/d12-x01-y01
ScaledBy=8.48307070057490207e-09
Title=Scheme-2
XLabel=~
YLabel=~
# xlow	 xhigh	 val	 errminus	 errplus
3.000000e+01	3.500000e+01	3.433424e-02	2.480662e-03	2.480662e-03
3.500000e+01	4.000000e+01	1.730320e-02	5.481185e-04	5.481185e-04
4.000000e+01	5.000000e+01	7.624661e-03	1.636924e-04	1.636924e-04
5.000000e+01	6.000000e+01	2.666970e-03	7.611175e-05	7.611175e-05
6.000000e+01	7.000000e+01	1.149342e-03	5.251855e-05	5.251855e-05
7.000000e+01	8.000000e+01	5.712165e-04	2.796852e-05	2.796852e-05
8.000000e+01	1.000000e+02	1.963342e-04	9.697496e-06	9.697496e-06
# END HISTO1D


# BEGIN HISTO1D //Users/Nappo/work/hep/code/trunk/Examples/Z-benchmarks/inclusive-results/MEPSatNLO-CSS_evol_scheme-3.yoda/ATLAS_2013_I1230812/d12-x01-y01
Color=blue
ErrorBars=1
LineColor=orange
LineStyle=dashed
Path=//Users/Nappo/work/hep/code/trunk/Examples/Z-benchmarks/inclusive-results/MEPSatNLO-CSS_evol_scheme-3.yoda/ATLAS_2013_I1230812/d12-x01-y01
ScaledBy=8.99559552254667707e-09
Title=Scheme-3
XLabel=~
YLabel=~
# xlow	 xhigh	 val	 errminus	 errplus
3.000000e+01	3.500000e+01	3.645168e-02	3.806873e-03	3.806873e-03
3.500000e+01	4.000000e+01	1.683130e-02	5.602900e-04	5.602900e-04
4.000000e+01	5.000000e+01	7.124012e-03	1.734764e-04	1.734764e-04
5.000000e+01	6.000000e+01	2.840575e-03	8.545675e-05	8.545675e-05
6.000000e+01	7.000000e+01	1.149094e-03	6.045349e-05	6.045349e-05
7.000000e+01	8.000000e+01	5.915788e-04	5.000938e-05	5.000938e-05
8.000000e+01	1.000000e+02	2.070596e-04	1.140097e-05	1.140097e-05
# END HISTO1D


# BEGIN HISTO1D //Users/Nappo/work/hep/code/trunk/Examples/Z-benchmarks/inclusive-results/MEPSatNLO-Dire.yoda/ATLAS_2013_I1230812/d12-x01-y01
ErrorBars=1
LineColor=lilac
LineStyle=solid
Path=//Users/Nappo/work/hep/code/trunk/Examples/Z-benchmarks/inclusive-results/MEPSatNLO-Dire.yoda/ATLAS_2013_I1230812/d12-x01-y01
ScaledBy=9.20867125319886148e-09
Title=Dire-NLO
XLabel=~
YLabel=~
# xlow	 xhigh	 val	 errminus	 errplus
3.000000e+01	3.500000e+01	5.232046e-02	2.559775e-03	2.559775e-03
3.500000e+01	4.000000e+01	2.242086e-02	8.589235e-04	8.589235e-04
4.000000e+01	5.000000e+01	8.414831e-03	3.895704e-04	3.895704e-04
5.000000e+01	6.000000e+01	3.408894e-03	6.500029e-04	6.500029e-04
6.000000e+01	7.000000e+01	1.118172e-03	6.817991e-05	6.817991e-05
7.000000e+01	8.000000e+01	4.855580e-04	3.060957e-05	3.060957e-05
8.000000e+01	1.000000e+02	1.695403e-04	1.191744e-05	1.191744e-05
# END HISTO1D

