# BEGIN PLOT
LegendOnly=//Users/Nappo/work/hep/code/trunk/Examples/Z-benchmarks/results/LOPS-CSS_evol_scheme-0.yoda/MC_GENERIC/Phi //Users/Nappo/work/hep/code/trunk/Examples/Z-benchmarks/results/LOPS-CSS_evol_scheme-1.yoda/MC_GENERIC/Phi //Users/Nappo/work/hep/code/trunk/Examples/Z-benchmarks/results/LOPS-CSS_evol_scheme-2.yoda/MC_GENERIC/Phi //Users/Nappo/work/hep/code/trunk/Examples/Z-benchmarks/results/LOPS-CSS_evol_scheme-3.yoda/MC_GENERIC/Phi //Users/Nappo/work/hep/code/trunk/Examples/Z-benchmarks/results/LOPS-Dire.yoda/MC_GENERIC/Phi
DrawOnly=//Users/Nappo/work/hep/code/trunk/Examples/Z-benchmarks/results/LOPS-CSS_evol_scheme-0.yoda/MC_GENERIC/Phi //Users/Nappo/work/hep/code/trunk/Examples/Z-benchmarks/results/LOPS-CSS_evol_scheme-1.yoda/MC_GENERIC/Phi //Users/Nappo/work/hep/code/trunk/Examples/Z-benchmarks/results/LOPS-CSS_evol_scheme-2.yoda/MC_GENERIC/Phi //Users/Nappo/work/hep/code/trunk/Examples/Z-benchmarks/results/LOPS-CSS_evol_scheme-3.yoda/MC_GENERIC/Phi //Users/Nappo/work/hep/code/trunk/Examples/Z-benchmarks/results/LOPS-Dire.yoda/MC_GENERIC/Phi
Title=Azimuthal distribution of all particles
RatioPlot=1
LogY=0
RatioPlotYLabel=Ratio
RatioPlotReference=//Users/Nappo/work/hep/code/trunk/Examples/Z-benchmarks/results/LOPS-CSS_evol_scheme-0.yoda/MC_GENERIC/Phi
XLabel=$\phi$
YLabel=$1/\sigma \; \mathrm{d}\sigma/\mathrm{d}\phi$
LegendYPos=0.5
Legend=1
# END PLOT

# BEGIN HISTO1D //Users/Nappo/work/hep/code/trunk/Examples/Z-benchmarks/results/LOPS-CSS_evol_scheme-0.yoda/MC_GENERIC/Phi
Color=red
ErrorBars=1
LineColor=red
LineStyle=solid
Path=//Users/Nappo/work/hep/code/trunk/Examples/Z-benchmarks/results/LOPS-CSS_evol_scheme-0.yoda/MC_GENERIC/Phi
ScaledBy=6.65214791832555951e-13
Title= 0
XLabel=~
YLabel=~
# xlow	 xhigh	 val	 errminus	 errplus
0.000000e+00	1.256637e-01	1.591861e-01	3.665910e-05	3.665910e-05
1.256637e-01	2.513274e-01	1.591619e-01	3.665335e-05	3.665335e-05
2.513274e-01	3.769911e-01	1.591130e-01	3.664497e-05	3.664497e-05
3.769911e-01	5.026548e-01	1.591188e-01	3.664314e-05	3.664314e-05
5.026548e-01	6.283185e-01	1.591569e-01	3.665016e-05	3.665016e-05
6.283185e-01	7.539822e-01	1.591670e-01	3.665059e-05	3.665059e-05
7.539822e-01	8.796459e-01	1.591600e-01	3.664819e-05	3.664819e-05
8.796459e-01	1.005310e+00	1.591540e-01	3.664515e-05	3.664515e-05
1.005310e+00	1.130973e+00	1.591888e-01	3.665021e-05	3.665021e-05
1.130973e+00	1.256637e+00	1.591751e-01	3.665369e-05	3.665369e-05
1.256637e+00	1.382301e+00	1.591305e-01	3.664076e-05	3.664076e-05
1.382301e+00	1.507964e+00	1.591026e-01	3.664119e-05	3.664119e-05
1.507964e+00	1.633628e+00	1.591826e-01	3.665359e-05	3.665359e-05
1.633628e+00	1.759292e+00	1.591578e-01	3.664477e-05	3.664477e-05
1.759292e+00	1.884956e+00	1.591795e-01	3.665373e-05	3.665373e-05
1.884956e+00	2.010619e+00	1.591373e-01	3.664700e-05	3.664700e-05
2.010619e+00	2.136283e+00	1.591174e-01	3.664458e-05	3.664458e-05
2.136283e+00	2.261947e+00	1.591700e-01	3.664836e-05	3.664836e-05
2.261947e+00	2.387610e+00	1.591140e-01	3.664509e-05	3.664509e-05
2.387610e+00	2.513274e+00	1.591064e-01	3.664215e-05	3.664215e-05
2.513274e+00	2.638938e+00	1.591758e-01	3.664905e-05	3.664905e-05
2.638938e+00	2.764602e+00	1.592127e-01	3.665576e-05	3.665576e-05
2.764602e+00	2.890265e+00	1.591485e-01	3.665530e-05	3.665530e-05
2.890265e+00	3.015929e+00	1.591636e-01	3.664843e-05	3.664843e-05
3.015929e+00	3.141593e+00	1.592111e-01	3.664737e-05	3.664737e-05
3.141593e+00	3.267256e+00	1.591357e-01	3.664775e-05	3.664775e-05
3.267256e+00	3.392920e+00	1.591785e-01	3.664906e-05	3.664906e-05
3.392920e+00	3.518584e+00	1.591550e-01	3.665311e-05	3.665311e-05
3.518584e+00	3.644247e+00	1.591611e-01	3.665057e-05	3.665057e-05
3.644247e+00	3.769911e+00	1.592273e-01	3.665655e-05	3.665655e-05
3.769911e+00	3.895575e+00	1.591321e-01	3.664108e-05	3.664108e-05
3.895575e+00	4.021239e+00	1.591045e-01	3.664397e-05	3.664397e-05
4.021239e+00	4.146902e+00	1.591325e-01	3.664952e-05	3.664952e-05
4.146902e+00	4.272566e+00	1.591157e-01	3.664921e-05	3.664921e-05
4.272566e+00	4.398230e+00	1.590925e-01	3.664007e-05	3.664007e-05
4.398230e+00	4.523893e+00	1.591081e-01	3.664310e-05	3.664310e-05
4.523893e+00	4.649557e+00	1.591397e-01	3.664963e-05	3.664963e-05
4.649557e+00	4.775221e+00	1.591850e-01	3.665346e-05	3.665346e-05
4.775221e+00	4.900885e+00	1.591604e-01	3.664839e-05	3.664839e-05
4.900885e+00	5.026548e+00	1.591938e-01	3.665385e-05	3.665385e-05
5.026548e+00	5.152212e+00	1.591656e-01	3.665300e-05	3.665300e-05
5.152212e+00	5.277876e+00	1.591888e-01	3.665469e-05	3.665469e-05
5.277876e+00	5.403539e+00	1.592101e-01	3.665797e-05	3.665797e-05
5.403539e+00	5.529203e+00	1.591270e-01	3.664299e-05	3.664299e-05
5.529203e+00	5.654867e+00	1.590907e-01	3.663649e-05	3.663649e-05
5.654867e+00	5.780530e+00	1.592090e-01	3.665681e-05	3.665681e-05
5.780530e+00	5.906194e+00	1.591232e-01	3.664105e-05	3.664105e-05
5.906194e+00	6.031858e+00	1.591105e-01	3.664210e-05	3.664210e-05
6.031858e+00	6.157522e+00	1.592118e-01	3.665753e-05	3.665753e-05
6.157522e+00	6.283185e+00	1.591979e-01	3.665113e-05	3.665113e-05
# END HISTO1D


# BEGIN HISTO1D //Users/Nappo/work/hep/code/trunk/Examples/Z-benchmarks/results/LOPS-CSS_evol_scheme-1.yoda/MC_GENERIC/Phi
Color=blue
ErrorBars=1
LineColor=blue
LineStyle=solid
Path=//Users/Nappo/work/hep/code/trunk/Examples/Z-benchmarks/results/LOPS-CSS_evol_scheme-1.yoda/MC_GENERIC/Phi
ScaledBy=6.29107316073128628e-13
Title=Scheme-1
XLabel=~
YLabel=~
# xlow	 xhigh	 val	 errminus	 errplus
0.000000e+00	1.256637e-01	1.591039e-01	3.564804e-05	3.564804e-05
1.256637e-01	2.513274e-01	1.592126e-01	3.566613e-05	3.566613e-05
2.513274e-01	3.769911e-01	1.592158e-01	3.566313e-05	3.566313e-05
3.769911e-01	5.026548e-01	1.591676e-01	3.565334e-05	3.565334e-05
5.026548e-01	6.283185e-01	1.591476e-01	3.565415e-05	3.565415e-05
6.283185e-01	7.539822e-01	1.592173e-01	3.566691e-05	3.566691e-05
7.539822e-01	8.796459e-01	1.591846e-01	3.566256e-05	3.566256e-05
8.796459e-01	1.005310e+00	1.591443e-01	3.565013e-05	3.565013e-05
1.005310e+00	1.130973e+00	1.591959e-01	3.566462e-05	3.566462e-05
1.130973e+00	1.256637e+00	1.591305e-01	3.564835e-05	3.564835e-05
1.256637e+00	1.382301e+00	1.591098e-01	3.564940e-05	3.564940e-05
1.382301e+00	1.507964e+00	1.591499e-01	3.565276e-05	3.565276e-05
1.507964e+00	1.633628e+00	1.591341e-01	3.565189e-05	3.565189e-05
1.633628e+00	1.759292e+00	1.591410e-01	3.565241e-05	3.565241e-05
1.759292e+00	1.884956e+00	1.591291e-01	3.565447e-05	3.565447e-05
1.884956e+00	2.010619e+00	1.592024e-01	3.566618e-05	3.566618e-05
2.010619e+00	2.136283e+00	1.592030e-01	3.566528e-05	3.566528e-05
2.136283e+00	2.261947e+00	1.591099e-01	3.564776e-05	3.564776e-05
2.261947e+00	2.387610e+00	1.591480e-01	3.565906e-05	3.565906e-05
2.387610e+00	2.513274e+00	1.592007e-01	3.566050e-05	3.566050e-05
2.513274e+00	2.638938e+00	1.591418e-01	3.565427e-05	3.565427e-05
2.638938e+00	2.764602e+00	1.591527e-01	3.565405e-05	3.565405e-05
2.764602e+00	2.890265e+00	1.591709e-01	3.565545e-05	3.565545e-05
2.890265e+00	3.015929e+00	1.590940e-01	3.564714e-05	3.564714e-05
3.015929e+00	3.141593e+00	1.591875e-01	3.566177e-05	3.566177e-05
3.141593e+00	3.267256e+00	1.591083e-01	3.564934e-05	3.564934e-05
3.267256e+00	3.392920e+00	1.591295e-01	3.565151e-05	3.565151e-05
3.392920e+00	3.518584e+00	1.591397e-01	3.565395e-05	3.565395e-05
3.518584e+00	3.644247e+00	1.591519e-01	3.565673e-05	3.565673e-05
3.644247e+00	3.769911e+00	1.591056e-01	3.565069e-05	3.565069e-05
3.769911e+00	3.895575e+00	1.591996e-01	3.566440e-05	3.566440e-05
3.895575e+00	4.021239e+00	1.591540e-01	3.565577e-05	3.565577e-05
4.021239e+00	4.146902e+00	1.591694e-01	3.565930e-05	3.565930e-05
4.146902e+00	4.272566e+00	1.591621e-01	3.566129e-05	3.566129e-05
4.272566e+00	4.398230e+00	1.591718e-01	3.566132e-05	3.566132e-05
4.398230e+00	4.523893e+00	1.591815e-01	3.566377e-05	3.566377e-05
4.523893e+00	4.649557e+00	1.591126e-01	3.564758e-05	3.564758e-05
4.649557e+00	4.775221e+00	1.591422e-01	3.565791e-05	3.565791e-05
4.775221e+00	4.900885e+00	1.591482e-01	3.565258e-05	3.565258e-05
4.900885e+00	5.026548e+00	1.591474e-01	3.565123e-05	3.565123e-05
5.026548e+00	5.152212e+00	1.591458e-01	3.565482e-05	3.565482e-05
5.152212e+00	5.277876e+00	1.591776e-01	3.565252e-05	3.565252e-05
5.277876e+00	5.403539e+00	1.591364e-01	3.565028e-05	3.565028e-05
5.403539e+00	5.529203e+00	1.591601e-01	3.565530e-05	3.565530e-05
5.529203e+00	5.654867e+00	1.592208e-01	3.566544e-05	3.566544e-05
5.654867e+00	5.780530e+00	1.591176e-01	3.565248e-05	3.565248e-05
5.780530e+00	5.906194e+00	1.591382e-01	3.565516e-05	3.565516e-05
5.906194e+00	6.031858e+00	1.591337e-01	3.565233e-05	3.565233e-05
6.031858e+00	6.157522e+00	1.591272e-01	3.565588e-05	3.565588e-05
6.157522e+00	6.283185e+00	1.591707e-01	3.566009e-05	3.566009e-05
# END HISTO1D


# BEGIN HISTO1D //Users/Nappo/work/hep/code/trunk/Examples/Z-benchmarks/results/LOPS-CSS_evol_scheme-2.yoda/MC_GENERIC/Phi
Color=red
ErrorBars=1
LineColor=green
LineStyle=dashed
Path=//Users/Nappo/work/hep/code/trunk/Examples/Z-benchmarks/results/LOPS-CSS_evol_scheme-2.yoda/MC_GENERIC/Phi
ScaledBy=6.15416049346362384e-13
Title=Scheme-2
XLabel=~
YLabel=~
# xlow	 xhigh	 val	 errminus	 errplus
0.000000e+00	1.256637e-01	1.591875e-01	3.525406e-05	3.525406e-05
1.256637e-01	2.513274e-01	1.591839e-01	3.525395e-05	3.525395e-05
2.513274e-01	3.769911e-01	1.591699e-01	3.524915e-05	3.524915e-05
3.769911e-01	5.026548e-01	1.591300e-01	3.524511e-05	3.524511e-05
5.026548e-01	6.283185e-01	1.591732e-01	3.525291e-05	3.525291e-05
6.283185e-01	7.539822e-01	1.591979e-01	3.526005e-05	3.526005e-05
7.539822e-01	8.796459e-01	1.591702e-01	3.525517e-05	3.525517e-05
8.796459e-01	1.005310e+00	1.591486e-01	3.524777e-05	3.524777e-05
1.005310e+00	1.130973e+00	1.591702e-01	3.525639e-05	3.525639e-05
1.130973e+00	1.256637e+00	1.591753e-01	3.525158e-05	3.525158e-05
1.256637e+00	1.382301e+00	1.591772e-01	3.525261e-05	3.525261e-05
1.382301e+00	1.507964e+00	1.591416e-01	3.524980e-05	3.524980e-05
1.507964e+00	1.633628e+00	1.591759e-01	3.525243e-05	3.525243e-05
1.633628e+00	1.759292e+00	1.591272e-01	3.524545e-05	3.524545e-05
1.759292e+00	1.884956e+00	1.590734e-01	3.523973e-05	3.523973e-05
1.884956e+00	2.010619e+00	1.590864e-01	3.524359e-05	3.524359e-05
2.010619e+00	2.136283e+00	1.591685e-01	3.525141e-05	3.525141e-05
2.136283e+00	2.261947e+00	1.591761e-01	3.524932e-05	3.524932e-05
2.261947e+00	2.387610e+00	1.591402e-01	3.524943e-05	3.524943e-05
2.387610e+00	2.513274e+00	1.591429e-01	3.524769e-05	3.524769e-05
2.513274e+00	2.638938e+00	1.591927e-01	3.525243e-05	3.525243e-05
2.638938e+00	2.764602e+00	1.591562e-01	3.524963e-05	3.524963e-05
2.764602e+00	2.890265e+00	1.591244e-01	3.524543e-05	3.524543e-05
2.890265e+00	3.015929e+00	1.591478e-01	3.525025e-05	3.525025e-05
3.015929e+00	3.141593e+00	1.591571e-01	3.524937e-05	3.524937e-05
3.141593e+00	3.267256e+00	1.592168e-01	3.525784e-05	3.525784e-05
3.267256e+00	3.392920e+00	1.590807e-01	3.524024e-05	3.524024e-05
3.392920e+00	3.518584e+00	1.592023e-01	3.525409e-05	3.525409e-05
3.518584e+00	3.644247e+00	1.591775e-01	3.525153e-05	3.525153e-05
3.644247e+00	3.769911e+00	1.592370e-01	3.525975e-05	3.525975e-05
3.769911e+00	3.895575e+00	1.591952e-01	3.526040e-05	3.526040e-05
3.895575e+00	4.021239e+00	1.591697e-01	3.525183e-05	3.525183e-05
4.021239e+00	4.146902e+00	1.590942e-01	3.524457e-05	3.524457e-05
4.146902e+00	4.272566e+00	1.591314e-01	3.524672e-05	3.524672e-05
4.272566e+00	4.398230e+00	1.591663e-01	3.525399e-05	3.525399e-05
4.398230e+00	4.523893e+00	1.591441e-01	3.524746e-05	3.524746e-05
4.523893e+00	4.649557e+00	1.591590e-01	3.524726e-05	3.524726e-05
4.649557e+00	4.775221e+00	1.591667e-01	3.525391e-05	3.525391e-05
4.775221e+00	4.900885e+00	1.591548e-01	3.524918e-05	3.524918e-05
4.900885e+00	5.026548e+00	1.591197e-01	3.524715e-05	3.524715e-05
5.026548e+00	5.152212e+00	1.591469e-01	3.524626e-05	3.524626e-05
5.152212e+00	5.277876e+00	1.591059e-01	3.524419e-05	3.524419e-05
5.277876e+00	5.403539e+00	1.591512e-01	3.525287e-05	3.525287e-05
5.403539e+00	5.529203e+00	1.591161e-01	3.524779e-05	3.524779e-05
5.529203e+00	5.654867e+00	1.591628e-01	3.525688e-05	3.525688e-05
5.654867e+00	5.780530e+00	1.591335e-01	3.524479e-05	3.524479e-05
5.780530e+00	5.906194e+00	1.591543e-01	3.525037e-05	3.525037e-05
5.906194e+00	6.031858e+00	1.591493e-01	3.525255e-05	3.525255e-05
6.031858e+00	6.157522e+00	1.591270e-01	3.524490e-05	3.524490e-05
6.157522e+00	6.283185e+00	1.591910e-01	3.525784e-05	3.525784e-05
# END HISTO1D


# BEGIN HISTO1D //Users/Nappo/work/hep/code/trunk/Examples/Z-benchmarks/results/LOPS-CSS_evol_scheme-3.yoda/MC_GENERIC/Phi
Color=blue
ErrorBars=1
LineColor=orange
LineStyle=dashed
Path=//Users/Nappo/work/hep/code/trunk/Examples/Z-benchmarks/results/LOPS-CSS_evol_scheme-3.yoda/MC_GENERIC/Phi
ScaledBy=6.30037614251049515e-13
Title=Scheme-3
XLabel=~
YLabel=~
# xlow	 xhigh	 val	 errminus	 errplus
0.000000e+00	1.256637e-01	1.591341e-01	3.567080e-05	3.567080e-05
1.256637e-01	2.513274e-01	1.592220e-01	3.568036e-05	3.568036e-05
2.513274e-01	3.769911e-01	1.591935e-01	3.567973e-05	3.567973e-05
3.769911e-01	5.026548e-01	1.591520e-01	3.567078e-05	3.567078e-05
5.026548e-01	6.283185e-01	1.591401e-01	3.566801e-05	3.566801e-05
6.283185e-01	7.539822e-01	1.591565e-01	3.567408e-05	3.567408e-05
7.539822e-01	8.796459e-01	1.591383e-01	3.567321e-05	3.567321e-05
8.796459e-01	1.005310e+00	1.591255e-01	3.567064e-05	3.567064e-05
1.005310e+00	1.130973e+00	1.591266e-01	3.567017e-05	3.567017e-05
1.130973e+00	1.256637e+00	1.591617e-01	3.567593e-05	3.567593e-05
1.256637e+00	1.382301e+00	1.591518e-01	3.567707e-05	3.567707e-05
1.382301e+00	1.507964e+00	1.591493e-01	3.567651e-05	3.567651e-05
1.507964e+00	1.633628e+00	1.592456e-01	3.569088e-05	3.569088e-05
1.633628e+00	1.759292e+00	1.591414e-01	3.567703e-05	3.567703e-05
1.759292e+00	1.884956e+00	1.592152e-01	3.568386e-05	3.568386e-05
1.884956e+00	2.010619e+00	1.591605e-01	3.567920e-05	3.567920e-05
2.010619e+00	2.136283e+00	1.591947e-01	3.567844e-05	3.567844e-05
2.136283e+00	2.261947e+00	1.591447e-01	3.567124e-05	3.567124e-05
2.261947e+00	2.387610e+00	1.592213e-01	3.568702e-05	3.568702e-05
2.387610e+00	2.513274e+00	1.591203e-01	3.566960e-05	3.566960e-05
2.513274e+00	2.638938e+00	1.591519e-01	3.567426e-05	3.567426e-05
2.638938e+00	2.764602e+00	1.591780e-01	3.567724e-05	3.567724e-05
2.764602e+00	2.890265e+00	1.591654e-01	3.567634e-05	3.567634e-05
2.890265e+00	3.015929e+00	1.591083e-01	3.566584e-05	3.566584e-05
3.015929e+00	3.141593e+00	1.591118e-01	3.566863e-05	3.566863e-05
3.141593e+00	3.267256e+00	1.591589e-01	3.567447e-05	3.567447e-05
3.267256e+00	3.392920e+00	1.591755e-01	3.567568e-05	3.567568e-05
3.392920e+00	3.518584e+00	1.591157e-01	3.566990e-05	3.566990e-05
3.518584e+00	3.644247e+00	1.591865e-01	3.567739e-05	3.567739e-05
3.644247e+00	3.769911e+00	1.591788e-01	3.568233e-05	3.568233e-05
3.769911e+00	3.895575e+00	1.591506e-01	3.567132e-05	3.567132e-05
3.895575e+00	4.021239e+00	1.591024e-01	3.567371e-05	3.567371e-05
4.021239e+00	4.146902e+00	1.591276e-01	3.567272e-05	3.567272e-05
4.146902e+00	4.272566e+00	1.592087e-01	3.567915e-05	3.567915e-05
4.272566e+00	4.398230e+00	1.591787e-01	3.568094e-05	3.568094e-05
4.398230e+00	4.523893e+00	1.591487e-01	3.567320e-05	3.567320e-05
4.523893e+00	4.649557e+00	1.591836e-01	3.568010e-05	3.568010e-05
4.649557e+00	4.775221e+00	1.591626e-01	3.567653e-05	3.567653e-05
4.775221e+00	4.900885e+00	1.590954e-01	3.566555e-05	3.566555e-05
4.900885e+00	5.026548e+00	1.591291e-01	3.567257e-05	3.567257e-05
5.026548e+00	5.152212e+00	1.591704e-01	3.567485e-05	3.567485e-05
5.152212e+00	5.277876e+00	1.591160e-01	3.567139e-05	3.567139e-05
5.277876e+00	5.403539e+00	1.591012e-01	3.566527e-05	3.566527e-05
5.403539e+00	5.529203e+00	1.592393e-01	3.568530e-05	3.568530e-05
5.529203e+00	5.654867e+00	1.591670e-01	3.567472e-05	3.567472e-05
5.654867e+00	5.780530e+00	1.590833e-01	3.566155e-05	3.566155e-05
5.780530e+00	5.906194e+00	1.591247e-01	3.566908e-05	3.566908e-05
5.906194e+00	6.031858e+00	1.591410e-01	3.567295e-05	3.567295e-05
6.031858e+00	6.157522e+00	1.591443e-01	3.567528e-05	3.567528e-05
6.157522e+00	6.283185e+00	1.591472e-01	3.566981e-05	3.566981e-05
# END HISTO1D


# BEGIN HISTO1D //Users/Nappo/work/hep/code/trunk/Examples/Z-benchmarks/results/LOPS-Dire.yoda/MC_GENERIC/Phi
ErrorBars=1
LineColor=lilac
LineStyle=solid
Path=//Users/Nappo/work/hep/code/trunk/Examples/Z-benchmarks/results/LOPS-Dire.yoda/MC_GENERIC/Phi
ScaledBy=6.59369881843284166e-13
Title=Dire-NLO
XLabel=~
YLabel=~
# xlow	 xhigh	 val	 errminus	 errplus
0.000000e+00	1.256637e-01	1.591564e-01	4.887473e-05	4.887473e-05
1.256637e-01	2.513274e-01	1.591370e-01	4.903487e-05	4.903487e-05
2.513274e-01	3.769911e-01	1.592104e-01	4.890068e-05	4.890068e-05
3.769911e-01	5.026548e-01	1.591038e-01	4.893894e-05	4.893894e-05
5.026548e-01	6.283185e-01	1.591625e-01	4.887978e-05	4.887978e-05
6.283185e-01	7.539822e-01	1.590832e-01	4.892884e-05	4.892884e-05
7.539822e-01	8.796459e-01	1.590880e-01	4.875785e-05	4.875785e-05
8.796459e-01	1.005310e+00	1.592113e-01	4.893753e-05	4.893753e-05
1.005310e+00	1.130973e+00	1.591706e-01	4.889724e-05	4.889724e-05
1.130973e+00	1.256637e+00	1.591543e-01	4.887195e-05	4.887195e-05
1.256637e+00	1.382301e+00	1.591533e-01	4.908558e-05	4.908558e-05
1.382301e+00	1.507964e+00	1.591252e-01	4.902817e-05	4.902817e-05
1.507964e+00	1.633628e+00	1.591485e-01	4.901998e-05	4.901998e-05
1.633628e+00	1.759292e+00	1.591686e-01	4.908359e-05	4.908359e-05
1.759292e+00	1.884956e+00	1.591203e-01	4.896765e-05	4.896765e-05
1.884956e+00	2.010619e+00	1.591307e-01	4.895031e-05	4.895031e-05
2.010619e+00	2.136283e+00	1.591956e-01	4.914967e-05	4.914967e-05
2.136283e+00	2.261947e+00	1.591548e-01	4.881255e-05	4.881255e-05
2.261947e+00	2.387610e+00	1.592220e-01	4.901721e-05	4.901721e-05
2.387610e+00	2.513274e+00	1.591679e-01	4.901155e-05	4.901155e-05
2.513274e+00	2.638938e+00	1.591352e-01	4.892736e-05	4.892736e-05
2.638938e+00	2.764602e+00	1.591837e-01	4.887482e-05	4.887482e-05
2.764602e+00	2.890265e+00	1.590477e-01	4.884090e-05	4.884090e-05
2.890265e+00	3.015929e+00	1.590533e-01	4.877806e-05	4.877806e-05
3.015929e+00	3.141593e+00	1.591478e-01	4.882947e-05	4.882947e-05
3.141593e+00	3.267256e+00	1.592185e-01	4.880197e-05	4.880197e-05
3.267256e+00	3.392920e+00	1.591764e-01	4.880990e-05	4.880990e-05
3.392920e+00	3.518584e+00	1.592718e-01	4.898959e-05	4.898959e-05
3.518584e+00	3.644247e+00	1.591742e-01	4.880731e-05	4.880731e-05
3.644247e+00	3.769911e+00	1.591886e-01	4.898821e-05	4.898821e-05
3.769911e+00	3.895575e+00	1.591164e-01	4.905336e-05	4.905336e-05
3.895575e+00	4.021239e+00	1.590619e-01	4.887983e-05	4.887983e-05
4.021239e+00	4.146902e+00	1.591904e-01	4.900749e-05	4.900749e-05
4.146902e+00	4.272566e+00	1.591612e-01	4.888591e-05	4.888591e-05
4.272566e+00	4.398230e+00	1.592157e-01	4.888315e-05	4.888315e-05
4.398230e+00	4.523893e+00	1.591500e-01	4.900729e-05	4.900729e-05
4.523893e+00	4.649557e+00	1.591986e-01	4.913720e-05	4.913720e-05
4.649557e+00	4.775221e+00	1.590787e-01	4.897396e-05	4.897396e-05
4.775221e+00	4.900885e+00	1.591254e-01	4.898706e-05	4.898706e-05
4.900885e+00	5.026548e+00	1.590363e-01	4.872841e-05	4.872841e-05
5.026548e+00	5.152212e+00	1.592434e-01	4.912397e-05	4.912397e-05
5.152212e+00	5.277876e+00	1.591925e-01	4.888241e-05	4.888241e-05
5.277876e+00	5.403539e+00	1.591609e-01	4.888091e-05	4.888091e-05
5.403539e+00	5.529203e+00	1.591323e-01	4.885923e-05	4.885923e-05
5.529203e+00	5.654867e+00	1.591644e-01	4.892756e-05	4.892756e-05
5.654867e+00	5.780530e+00	1.592295e-01	4.899788e-05	4.899788e-05
5.780530e+00	5.906194e+00	1.591155e-01	4.877704e-05	4.877704e-05
5.906194e+00	6.031858e+00	1.591195e-01	4.883617e-05	4.883617e-05
6.031858e+00	6.157522e+00	1.591605e-01	4.907436e-05	4.907436e-05
6.157522e+00	6.283185e+00	1.592329e-01	4.897854e-05	4.897854e-05
# END HISTO1D

