# BEGIN PLOT
LegendOnly=//Users/Nappo/work/hep/code/trunk/Examples/Z-benchmarks/results/MCatNLO-CSS_evol_scheme-0.yoda/MC_XS/pmN //Users/Nappo/work/hep/code/trunk/Examples/Z-benchmarks/results/MCatNLO-CSS_evol_scheme-1.yoda/MC_XS/pmN //Users/Nappo/work/hep/code/trunk/Examples/Z-benchmarks/results/MCatNLO-CSS_evol_scheme-2.yoda/MC_XS/pmN //Users/Nappo/work/hep/code/trunk/Examples/Z-benchmarks/results/MCatNLO-CSS_evol_scheme-3.yoda/MC_XS/pmN //Users/Nappo/work/hep/code/trunk/Examples/Z-benchmarks/results/MCatNLO-Dire.yoda/MC_XS/pmN
DrawOnly=//Users/Nappo/work/hep/code/trunk/Examples/Z-benchmarks/results/MCatNLO-CSS_evol_scheme-0.yoda/MC_XS/pmN //Users/Nappo/work/hep/code/trunk/Examples/Z-benchmarks/results/MCatNLO-CSS_evol_scheme-1.yoda/MC_XS/pmN //Users/Nappo/work/hep/code/trunk/Examples/Z-benchmarks/results/MCatNLO-CSS_evol_scheme-2.yoda/MC_XS/pmN //Users/Nappo/work/hep/code/trunk/Examples/Z-benchmarks/results/MCatNLO-CSS_evol_scheme-3.yoda/MC_XS/pmN //Users/Nappo/work/hep/code/trunk/Examples/Z-benchmarks/results/MCatNLO-Dire.yoda/MC_XS/pmN
Title=Number of positive and negative weighted events
XMajorTickMarks=20
RatioPlot=1
LogY=0
RatioPlotYLabel=Ratio
RatioPlotReference=//Users/Nappo/work/hep/code/trunk/Examples/Z-benchmarks/results/MCatNLO-CSS_evol_scheme-0.yoda/MC_XS/pmN
XLabel=$\pm$
ShowZero=0
XMax=1
YLabel=$N_\pm$
XMin=-1
XMinorTickMarks=0
Legend=1
# END PLOT

# BEGIN HISTO1D //Users/Nappo/work/hep/code/trunk/Examples/Z-benchmarks/results/MCatNLO-CSS_evol_scheme-0.yoda/MC_XS/pmN
Color=red
ErrorBars=1
LineColor=red
LineStyle=solid
Path=//Users/Nappo/work/hep/code/trunk/Examples/Z-benchmarks/results/MCatNLO-CSS_evol_scheme-0.yoda/MC_XS/pmN
Title= 0
XLabel=~
YLabel=~
# xlow	 xhigh	 val	 errminus	 errplus
-1.000000e+00	0.000000e+00	3.145390e+05	5.608378e+02	5.608378e+02
0.000000e+00	1.000000e+00	9.664037e+06	3.108703e+03	3.108703e+03
# END HISTO1D


# BEGIN HISTO1D //Users/Nappo/work/hep/code/trunk/Examples/Z-benchmarks/results/MCatNLO-CSS_evol_scheme-1.yoda/MC_XS/pmN
Color=blue
ErrorBars=1
LineColor=blue
LineStyle=solid
Path=//Users/Nappo/work/hep/code/trunk/Examples/Z-benchmarks/results/MCatNLO-CSS_evol_scheme-1.yoda/MC_XS/pmN
Title=Scheme-1
XLabel=~
YLabel=~
# xlow	 xhigh	 val	 errminus	 errplus
-1.000000e+00	0.000000e+00	3.152090e+05	5.614348e+02	5.614348e+02
0.000000e+00	1.000000e+00	9.674479e+06	3.110382e+03	3.110382e+03
# END HISTO1D


# BEGIN HISTO1D //Users/Nappo/work/hep/code/trunk/Examples/Z-benchmarks/results/MCatNLO-CSS_evol_scheme-2.yoda/MC_XS/pmN
Color=red
ErrorBars=1
LineColor=green
LineStyle=dashed
Path=//Users/Nappo/work/hep/code/trunk/Examples/Z-benchmarks/results/MCatNLO-CSS_evol_scheme-2.yoda/MC_XS/pmN
Title=Scheme-2
XLabel=~
YLabel=~
# xlow	 xhigh	 val	 errminus	 errplus
-1.000000e+00	0.000000e+00	3.111530e+05	5.578109e+02	5.578109e+02
0.000000e+00	1.000000e+00	9.689647e+06	3.112820e+03	3.112820e+03
# END HISTO1D


# BEGIN HISTO1D //Users/Nappo/work/hep/code/trunk/Examples/Z-benchmarks/results/MCatNLO-CSS_evol_scheme-3.yoda/MC_XS/pmN
Color=blue
ErrorBars=1
LineColor=orange
LineStyle=dashed
Path=//Users/Nappo/work/hep/code/trunk/Examples/Z-benchmarks/results/MCatNLO-CSS_evol_scheme-3.yoda/MC_XS/pmN
Title=Scheme-3
XLabel=~
YLabel=~
# xlow	 xhigh	 val	 errminus	 errplus
-1.000000e+00	0.000000e+00	3.147240e+05	5.610027e+02	5.610027e+02
0.000000e+00	1.000000e+00	9.686076e+06	3.112246e+03	3.112246e+03
# END HISTO1D


# BEGIN HISTO1D //Users/Nappo/work/hep/code/trunk/Examples/Z-benchmarks/results/MCatNLO-Dire.yoda/MC_XS/pmN
ErrorBars=1
LineColor=lilac
LineStyle=solid
Path=//Users/Nappo/work/hep/code/trunk/Examples/Z-benchmarks/results/MCatNLO-Dire.yoda/MC_XS/pmN
Title=Dire-NLO
XLabel=~
YLabel=~
# xlow	 xhigh	 val	 errminus	 errplus
-1.000000e+00	0.000000e+00	9.891870e+05	9.945788e+02	9.945788e+02
0.000000e+00	1.000000e+00	8.556021e+06	2.925068e+03	2.925068e+03
# END HISTO1D

