# BEGIN PLOT
LegendOnly=/CMS_2013_I1224539_ZJET/d47-x01-y01 //Users/Nappo/work/hep/code/trunk/Examples/Z-benchmarks/inclusive-results/MEPSatNLO-CSS_evol_scheme-0.yoda/CMS_2013_I1224539_ZJET/d47-x01-y01 //Users/Nappo/work/hep/code/trunk/Examples/Z-benchmarks/inclusive-results/MEPSatNLO-CSS_evol_scheme-1.yoda/CMS_2013_I1224539_ZJET/d47-x01-y01 //Users/Nappo/work/hep/code/trunk/Examples/Z-benchmarks/inclusive-results/MEPSatNLO-CSS_evol_scheme-2.yoda/CMS_2013_I1224539_ZJET/d47-x01-y01 //Users/Nappo/work/hep/code/trunk/Examples/Z-benchmarks/inclusive-results/MEPSatNLO-CSS_evol_scheme-3.yoda/CMS_2013_I1224539_ZJET/d47-x01-y01 //Users/Nappo/work/hep/code/trunk/Examples/Z-benchmarks/inclusive-results/MEPSatNLO-Dire.yoda/CMS_2013_I1224539_ZJET/d47-x01-y01
DrawOnly=/CMS_2013_I1224539_ZJET/d47-x01-y01 //Users/Nappo/work/hep/code/trunk/Examples/Z-benchmarks/inclusive-results/MEPSatNLO-CSS_evol_scheme-0.yoda/CMS_2013_I1224539_ZJET/d47-x01-y01 //Users/Nappo/work/hep/code/trunk/Examples/Z-benchmarks/inclusive-results/MEPSatNLO-CSS_evol_scheme-1.yoda/CMS_2013_I1224539_ZJET/d47-x01-y01 //Users/Nappo/work/hep/code/trunk/Examples/Z-benchmarks/inclusive-results/MEPSatNLO-CSS_evol_scheme-2.yoda/CMS_2013_I1224539_ZJET/d47-x01-y01 //Users/Nappo/work/hep/code/trunk/Examples/Z-benchmarks/inclusive-results/MEPSatNLO-CSS_evol_scheme-3.yoda/CMS_2013_I1224539_ZJET/d47-x01-y01 //Users/Nappo/work/hep/code/trunk/Examples/Z-benchmarks/inclusive-results/MEPSatNLO-Dire.yoda/CMS_2013_I1224539_ZJET/d47-x01-y01
Title=Pruned CA8 $Z$+jets, $p_{T,j}$ = 220--300 GeV
RatioPlotReference=/CMS_2013_I1224539_ZJET/d47-x01-y01
RatioPlot=1
LogY=1
RatioPlotYMax=2.0
XLabel=$m$ [GeV]
XMax=150.0
YLabel=$1000/\sigma \, \mathrm{d}\sigma)/\mathrm{d}m$ [1/GeV]
XMin=0.0
Legend=1
RatioPlotYMin=0.0
# END PLOT

# BEGIN HISTO1D /CMS_2013_I1224539_ZJET/d47-x01-y01
ConnectBins=0
ErrorBars=1
IsRef=1
Path=/CMS_2013_I1224539_ZJET/d47-x01-y01
PolyMarker=*
Title=Data
# xlow	 xhigh	 val	 errminus	 errplus
0.000000e+00	1.000000e+01	2.872400e+01	2.826025e+00	2.826025e+00
1.000000e+01	2.000000e+01	2.525600e+01	2.618618e+00	2.618618e+00
2.000000e+01	3.000000e+01	9.966900e+00	1.414194e+00	1.414194e+00
3.000000e+01	4.000000e+01	7.336500e+00	1.084528e+00	1.084528e+00
4.000000e+01	5.000000e+01	6.914000e+00	9.770992e-01	9.770992e-01
5.000000e+01	6.000000e+01	4.991700e+00	7.317697e-01	7.317697e-01
6.000000e+01	7.000000e+01	4.751300e+00	6.552113e-01	6.552113e-01
7.000000e+01	8.000000e+01	4.659100e+00	6.759101e-01	6.759101e-01
8.000000e+01	9.000000e+01	2.640100e+00	5.098827e-01	5.098827e-01
9.000000e+01	1.000000e+02	2.273600e+00	5.011553e-01	5.011553e-01
1.000000e+02	1.100000e+02	1.970000e+00	4.883905e-01	4.883905e-01
1.100000e+02	1.200000e+02	4.658000e-01	1.793237e-01	1.793237e-01
1.200000e+02	1.300000e+02	5.095000e-02	6.464370e-02	6.464370e-02
1.300000e+02	1.400000e+02	0.000000e+00	8.599564e-02	8.599564e-02
1.400000e+02	1.500000e+02	0.000000e+00	1.660000e-02	1.660000e-02
1.500000e+02	1.600000e+02	0.000000e+00	0.000000e+00	0.000000e+00
1.600000e+02	1.700000e+02	0.000000e+00	1.540000e-02	1.540000e-02
# END HISTO1D


# BEGIN HISTO1D //Users/Nappo/work/hep/code/trunk/Examples/Z-benchmarks/inclusive-results/MEPSatNLO-CSS_evol_scheme-0.yoda/CMS_2013_I1224539_ZJET/d47-x01-y01
Color=red
ErrorBars=1
LineColor=red
LineStyle=solid
Path=//Users/Nappo/work/hep/code/trunk/Examples/Z-benchmarks/inclusive-results/MEPSatNLO-CSS_evol_scheme-0.yoda/CMS_2013_I1224539_ZJET/d47-x01-y01
ScaledBy=4.35293515991807964e-05
Title= 0
XLabel=~
YLabel=~
# xlow	 xhigh	 val	 errminus	 errplus
0.000000e+00	1.000000e+01	1.163963e+01	2.151625e+00	2.151625e+00
1.000000e+01	2.000000e+01	2.173525e+01	1.632028e+00	1.632028e+00
2.000000e+01	3.000000e+01	2.132982e+01	2.060950e+00	2.060950e+00
3.000000e+01	4.000000e+01	1.130256e+01	1.352344e+00	1.352344e+00
4.000000e+01	5.000000e+01	8.514508e+00	9.490082e-01	9.490082e-01
5.000000e+01	6.000000e+01	7.204110e+00	1.450061e+00	1.450061e+00
6.000000e+01	7.000000e+01	4.931921e+00	5.967299e-01	5.967299e-01
7.000000e+01	8.000000e+01	3.917000e+00	5.194401e-01	5.194401e-01
8.000000e+01	9.000000e+01	3.461402e+00	3.350900e-01	3.350900e-01
9.000000e+01	1.000000e+02	2.754702e+00	5.191585e-01	5.191585e-01
1.000000e+02	1.100000e+02	1.596134e+00	1.585113e-01	1.585113e-01
1.100000e+02	1.200000e+02	8.110273e-01	1.027007e-01	1.027007e-01
1.200000e+02	1.300000e+02	4.557444e-01	7.621218e-02	7.621218e-02
1.300000e+02	1.400000e+02	2.394025e-01	4.303487e-02	4.303487e-02
1.400000e+02	1.500000e+02	4.011003e-02	9.286286e-03	9.286286e-03
1.500000e+02	1.600000e+02	5.450646e-02	2.439561e-02	2.439561e-02
1.600000e+02	1.700000e+02	8.581680e-03	2.811221e-03	2.811221e-03
# END HISTO1D


# BEGIN HISTO1D //Users/Nappo/work/hep/code/trunk/Examples/Z-benchmarks/inclusive-results/MEPSatNLO-CSS_evol_scheme-1.yoda/CMS_2013_I1224539_ZJET/d47-x01-y01
Color=blue
ErrorBars=1
LineColor=blue
LineStyle=solid
Path=//Users/Nappo/work/hep/code/trunk/Examples/Z-benchmarks/inclusive-results/MEPSatNLO-CSS_evol_scheme-1.yoda/CMS_2013_I1224539_ZJET/d47-x01-y01
ScaledBy=4.42191100365247168e-05
Title=Scheme-1
XLabel=~
YLabel=~
# xlow	 xhigh	 val	 errminus	 errplus
0.000000e+00	1.000000e+01	1.530799e+01	3.385716e+00	3.385716e+00
1.000000e+01	2.000000e+01	2.472785e+01	1.792103e+00	1.792103e+00
2.000000e+01	3.000000e+01	2.243920e+01	2.194333e+00	2.194333e+00
3.000000e+01	4.000000e+01	1.141778e+01	1.307336e+00	1.307336e+00
4.000000e+01	5.000000e+01	6.087282e+00	6.934801e-01	6.934801e-01
5.000000e+01	6.000000e+01	4.847927e+00	6.130861e-01	6.130861e-01
6.000000e+01	7.000000e+01	4.383074e+00	4.352133e-01	4.352133e-01
7.000000e+01	8.000000e+01	4.332972e+00	7.340573e-01	7.340573e-01
8.000000e+01	9.000000e+01	2.263504e+00	1.676261e-01	1.676261e-01
9.000000e+01	1.000000e+02	1.832940e+00	1.700114e-01	1.700114e-01
1.000000e+02	1.100000e+02	1.091438e+00	1.134719e-01	1.134719e-01
1.100000e+02	1.200000e+02	7.226717e-01	1.067200e-01	1.067200e-01
1.200000e+02	1.300000e+02	3.292646e-01	4.039320e-02	4.039320e-02
1.300000e+02	1.400000e+02	1.369291e-01	2.530143e-02	2.530143e-02
1.400000e+02	1.500000e+02	3.761194e-02	7.868822e-03	7.868822e-03
1.500000e+02	1.600000e+02	3.051197e-02	1.399999e-02	1.399999e-02
1.600000e+02	1.700000e+02	1.368971e-03	5.927194e-04	5.927194e-04
# END HISTO1D


# BEGIN HISTO1D //Users/Nappo/work/hep/code/trunk/Examples/Z-benchmarks/inclusive-results/MEPSatNLO-CSS_evol_scheme-2.yoda/CMS_2013_I1224539_ZJET/d47-x01-y01
Color=red
ErrorBars=1
LineColor=green
LineStyle=dashed
Path=//Users/Nappo/work/hep/code/trunk/Examples/Z-benchmarks/inclusive-results/MEPSatNLO-CSS_evol_scheme-2.yoda/CMS_2013_I1224539_ZJET/d47-x01-y01
ScaledBy=3.65108491948528248e-05
Title=Scheme-2
XLabel=~
YLabel=~
# xlow	 xhigh	 val	 errminus	 errplus
0.000000e+00	1.000000e+01	1.200819e+01	1.235814e+00	1.235814e+00
1.000000e+01	2.000000e+01	2.535283e+01	1.921789e+00	1.921789e+00
2.000000e+01	3.000000e+01	2.154391e+01	1.635911e+00	1.635911e+00
3.000000e+01	4.000000e+01	1.399488e+01	2.856607e+00	2.856607e+00
4.000000e+01	5.000000e+01	6.277964e+00	6.487471e-01	6.487471e-01
5.000000e+01	6.000000e+01	5.138167e+00	1.222400e+00	1.222400e+00
6.000000e+01	7.000000e+01	3.843679e+00	3.837533e-01	3.837533e-01
7.000000e+01	8.000000e+01	3.899591e+00	5.397615e-01	5.397615e-01
8.000000e+01	9.000000e+01	3.175274e+00	3.866241e-01	3.866241e-01
9.000000e+01	1.000000e+02	2.010777e+00	2.195435e-01	2.195435e-01
1.000000e+02	1.100000e+02	1.246498e+00	1.698732e-01	1.698732e-01
1.100000e+02	1.200000e+02	8.029238e-01	1.033111e-01	1.033111e-01
1.200000e+02	1.300000e+02	3.716190e-01	6.999158e-02	6.999158e-02
1.300000e+02	1.400000e+02	1.814006e-01	4.693265e-02	4.693265e-02
1.400000e+02	1.500000e+02	1.258093e-01	6.181740e-02	6.181740e-02
1.500000e+02	1.600000e+02	2.093232e-02	5.328381e-03	5.328381e-03
1.600000e+02	1.700000e+02	2.866214e-03	1.218648e-03	1.218648e-03
# END HISTO1D


# BEGIN HISTO1D //Users/Nappo/work/hep/code/trunk/Examples/Z-benchmarks/inclusive-results/MEPSatNLO-CSS_evol_scheme-3.yoda/CMS_2013_I1224539_ZJET/d47-x01-y01
Color=blue
ErrorBars=1
LineColor=orange
LineStyle=dashed
Path=//Users/Nappo/work/hep/code/trunk/Examples/Z-benchmarks/inclusive-results/MEPSatNLO-CSS_evol_scheme-3.yoda/CMS_2013_I1224539_ZJET/d47-x01-y01
ScaledBy=4.86859164008801191e-05
Title=Scheme-3
XLabel=~
YLabel=~
# xlow	 xhigh	 val	 errminus	 errplus
0.000000e+00	1.000000e+01	1.238569e+01	1.027497e+00	1.027497e+00
1.000000e+01	2.000000e+01	2.854148e+01	2.107930e+00	2.107930e+00
2.000000e+01	3.000000e+01	1.977723e+01	1.497100e+00	1.497100e+00
3.000000e+01	4.000000e+01	9.695137e+00	8.951437e-01	8.951437e-01
4.000000e+01	5.000000e+01	5.831874e+00	5.849610e-01	5.849610e-01
5.000000e+01	6.000000e+01	4.676798e+00	5.512249e-01	5.512249e-01
6.000000e+01	7.000000e+01	5.469827e+00	7.736782e-01	7.736782e-01
7.000000e+01	8.000000e+01	4.607397e+00	7.129551e-01	7.129551e-01
8.000000e+01	9.000000e+01	3.585427e+00	5.222647e-01	5.222647e-01
9.000000e+01	1.000000e+02	2.479334e+00	3.432400e-01	3.432400e-01
1.000000e+02	1.100000e+02	1.507391e+00	1.536666e-01	1.536666e-01
1.100000e+02	1.200000e+02	7.764393e-01	1.037526e-01	1.037526e-01
1.200000e+02	1.300000e+02	3.851736e-01	5.513149e-02	5.513149e-02
1.300000e+02	1.400000e+02	2.009307e-01	4.875307e-02	4.875307e-02
1.400000e+02	1.500000e+02	5.540593e-02	1.501037e-02	1.501037e-02
1.500000e+02	1.600000e+02	1.722710e-02	4.252900e-03	4.252900e-03
1.600000e+02	1.700000e+02	5.088690e-03	4.143193e-03	4.143193e-03
# END HISTO1D


# BEGIN HISTO1D //Users/Nappo/work/hep/code/trunk/Examples/Z-benchmarks/inclusive-results/MEPSatNLO-Dire.yoda/CMS_2013_I1224539_ZJET/d47-x01-y01
ErrorBars=1
LineColor=lilac
LineStyle=solid
Path=//Users/Nappo/work/hep/code/trunk/Examples/Z-benchmarks/inclusive-results/MEPSatNLO-Dire.yoda/CMS_2013_I1224539_ZJET/d47-x01-y01
ScaledBy=3.30255238762059347e-05
Title=Dire-NLO
XLabel=~
YLabel=~
# xlow	 xhigh	 val	 errminus	 errplus
0.000000e+00	1.000000e+01	1.253256e+01	1.490392e+00	1.490392e+00
1.000000e+01	2.000000e+01	3.311034e+01	6.572435e+00	6.572435e+00
2.000000e+01	3.000000e+01	2.017013e+01	2.897060e+00	2.897060e+00
3.000000e+01	4.000000e+01	1.026202e+01	1.366696e+00	1.366696e+00
4.000000e+01	5.000000e+01	7.454399e+00	1.264820e+00	1.264820e+00
5.000000e+01	6.000000e+01	4.233025e+00	4.214219e-01	4.214219e-01
6.000000e+01	7.000000e+01	4.561984e+00	6.984364e-01	6.984364e-01
7.000000e+01	8.000000e+01	2.311133e+00	1.930563e-01	1.930563e-01
8.000000e+01	9.000000e+01	1.751365e+00	5.999814e-01	5.999814e-01
9.000000e+01	1.000000e+02	1.572756e+00	1.698654e-01	1.698654e-01
1.000000e+02	1.100000e+02	1.218163e+00	1.585574e-01	1.585574e-01
1.100000e+02	1.200000e+02	4.583974e-01	7.739477e-02	7.739477e-02
1.200000e+02	1.300000e+02	2.172606e-01	3.147084e-02	3.147084e-02
1.300000e+02	1.400000e+02	7.993209e-02	1.188171e-02	1.188171e-02
1.400000e+02	1.500000e+02	6.301113e-02	1.695839e-02	1.695839e-02
1.500000e+02	1.600000e+02	2.278270e-03	1.925944e-03	1.925944e-03
1.600000e+02	1.700000e+02	-2.322333e-04	1.567752e-03	1.567752e-03
# END HISTO1D

